,Index,Token,Line,precision,recall
0,0,0.0,0.0,0.0,0.0
1,0,1.0,1.0,1.0,1.0
2,0,1.0,0.4828,0.3333,0.25
3,0,1.0,0.6889,0.8,0.5714
4,0,1.0,1.0,1.0,1.0
5,0,1.0,1.0,1.0,1.0
6,0,1.0,0.4762,0.2,0.2
7,0,0.0,0.2593,0.0,0.0
8,0,1.0,0.9714,1.0,1.0
9,0,1.0,0.563,0.4,0.2
10,0,0.0,0.3333,0.0,0.0
11,0,0.0,0.4681,0.25,0.6
12,0,0.0,0.25,0.3333,0.1429
13,0,1.0,0.8052,0.8333,0.8333
14,0,1.0,0.5789,0.6667,0.4
15,0,1.0,0.6286,0.6667,0.6667
16,0,1.0,0.7059,0.6667,0.5
17,0,1.0,0.4615,0.1429,0.1429
18,0,0.0,0.3333,0.0,0.0
19,0,0.0,0.2718,0.0,0.0
20,0,1.0,0.3816,0.25,0.125
21,0,1.0,0.9492,1.0,1.0
22,0,0.0,0.3256,0.6667,0.2857
23,0,0.0,0.6133,1.0,0.3333
24,0,1.0,0.8525,0.5,0.6667
25,0,0.0,0.3273,0.3333,0.25
26,0,0.0,0.2,0.3333,0.3333
27,0,0.4,0.3492,0.0,0.0
28,0,1.0,0.7619,1.0,0.6667
29,0,0.2222,0.2593,0.5,0.1429
30,0,1.0,0.6765,0.5,0.6
31,0,1.0,0.281,0.6667,0.1667
32,0,0.0,0.3947,0.3333,0.25
33,0,1.0,0.7816,0.8,0.5714
34,0,1.0,0.7731,0.6,0.5
35,0,0.4444,0.1667,0.0,0.0
36,0,0.0,0.0,0.0,0.0
37,0,1.0,0.8315,0.75,0.6
38,0,0.2,0.1277,0.0,0.0
39,0,0.0,0.3146,0.3333,0.1429
40,0,1.0,0.8392,0.8571,0.6667
41,0,0.0,0.3704,0.3333,0.1667
42,0,0.0,0.2937,0.0,0.0
43,0,0.1818,0.3922,0.2,0.5
44,0,0.1818,0.1224,0.0,0.0
45,0,1.0,0.768,0.6,0.4286
46,0,0.0,0.4819,0.5,0.4286
47,0,1.0,0.7742,0.5,0.75
48,0,1.0,1.0,1.0,1.0
49,0,1.0,0.7442,0.6667,0.6667
50,0,0.0,0.2516,0.3333,0.1667
51,0,0.0,0.2927,0.2,0.3333
52,0,1.0,0.9714,0.6667,0.5
53,0,1.0,0.7255,0.5,0.6667
54,0,0.1667,0.3934,0.0,0.0
55,0,1.0,0.5714,0.3333,0.5
56,0,0.2222,0.4912,0.5,0.5
57,0,0.1818,0.0181,0.0,0.0
58,0,1.0,0.45,0.6667,0.6667
59,0,0.0,0.4,0.0,0.0
60,0,1.0,1.0,1.0,1.0
61,0,1.0,0.7174,0.5,0.6
62,0,1.0,1.0,1.0,1.0
63,0,0.0,0.0,0.0,0.0
64,0,1.0,0.46,0.5,0.375
65,0,1.0,0.4906,0.4,0.2857
66,0,0.1818,0.4146,0.5,0.125
67,0,0.0,0.5676,0.75,0.375
68,0,1.0,0.7525,0.6667,0.5714
69,0,1.0,0.9147,1.0,0.8571
70,0,0.0,0.0896,0.0,0.0
71,0,1.0,0.7475,0.8571,0.6
72,0,0.0,0.05,0.0,0.0
73,0,0.0,0.3396,0.6667,0.2857
74,0,0.1818,0.6299,0.125,0.3333
75,0,1.0,0.5205,1.0,0.4545
76,0,1.0,0.5,0.25,0.3333
77,0,1.0,0.8261,0.5556,0.7143
78,0,0.3636,0.321,0.0,0.0
79,0,0.3333,0.2933,0.0,0.0
80,0,1.0,0.8696,0.8,0.8
81,0,1.0,0.6,0.3333,0.4286
82,0,0.25,0.371,0.2,0.1667
83,0,0.0,0.2292,0.3333,0.1429
84,0,1.0,1.0,1.0,1.0
85,0,0.2222,0.3415,0.0,0.0
86,0,0.2,0.4412,0.3333,0.2
87,0,1.0,0.5176,0.5,0.4286
88,0,0.0,0.3796,0.0,0.0
89,0,0.0,0.2906,0.0,0.0
90,0,1.0,1.0,1.0,1.0
91,0,1.0,1.0,1.0,1.0
92,0,0.2857,0.2273,0.3333,0.2
93,0,0.0,0.3636,0.0,0.0
94,0,1.0,0.5607,0.5,0.6
95,0,1.0,0.5669,0.5,0.375
96,0,1.0,1.0,1.0,1.0
97,0,0.0,0.129,0.3333,0.1111
98,0,0.0,0.2667,0.0,0.0
99,0,0.0,0.2759,0.0,0.0
100,0,1.0,1.0,1.0,1.0
101,0,0.0,0.5405,0.3333,0.25
102,0,0.0,0.2857,0.3333,0.2
103,0,0.0,0.275,0.3333,0.1667
104,0,0.0,0.0,0.0,0.0
105,0,1.0,0.6111,0.4,0.25
106,0,0.2,0.3025,0.0,0.0
107,0,1.0,0.5435,0.5,0.375
108,0,1.0,0.5435,0.5,0.375
109,0,0.1818,0.3896,0.125,0.5
110,0,1.0,0.6667,0.375,0.6
111,0,1.0,0.5981,0.375,0.6
112,0,1.0,0.6296,0.4,0.5
113,0,0.0,0.35,0.3333,0.5
114,0,1.0,0.4643,0.6,0.3333
115,0,0.0,0.3542,0.25,0.2
116,0,0.0,0.0509,0.0082,0.25
117,0,0.0,0.3902,0.25,0.25
118,0,1.0,0.8448,1.0,0.8
119,0,1.0,0.8333,0.6667,0.6667
120,0,0.0,0.4444,0.6667,0.3333
121,0,0.0,0.2745,0.3333,0.25
122,0,0.0,0.4675,0.6667,0.3333
123,0,0.1818,0.525,0.1667,0.25
124,0,1.0,1.0,1.0,1.0
125,0,0.0,0.4359,0.3333,0.4
126,0,1.0,0.6234,0.4286,0.75
127,0,0.1818,0.506,0.2,0.5
128,0,1.0,0.595,0.5,0.2857
129,0,0.1818,0.1613,0.5,0.0769
130,0,0.0,0.2609,0.3333,0.2
131,0,0.2,0.3133,0.1667,0.1667
132,0,1.0,0.4286,0.4286,0.3333
133,0,0.0,0.2,0.5,0.1
134,0,0.2,0.4946,0.2222,0.4
135,0,1.0,0.7059,0.5,0.6
136,0,0.0,0.2222,0.0,0.0
137,0,1.0,1.0,1.0,1.0
138,0,0.1818,0.506,0.2,0.5
139,0,1.0,0.7857,1.0,0.6667
140,0,0.0,0.0,0.0,0.0
141,0,0.0,0.4786,0.4286,0.3333
142,0,1.0,0.3614,0.2,0.1667
143,0,1.0,0.5882,0.5,0.6667
144,0,0.4444,0.1017,0.0,0.0
145,0,1.0,0.3889,0.2,0.2
146,0,0.0,0.6341,0.6,0.6
147,0,1.0,0.4938,0.25,0.2
148,0,0.3636,0.4643,0.8571,0.3
149,0,0.3333,0.2857,0.3333,0.2
150,0,1.0,0.7294,0.4286,0.75
151,0,0.3636,0.2817,0.0,0.0
152,0,1.0,0.4037,0.2857,0.3333
153,0,1.0,0.3582,1.0,0.3333
154,0,0.0,0.411,0.25,0.25
155,0,0.0,0.0,0.0,0.0
156,0,1.0,1.0,1.0,1.0
157,0,1.0,0.898,0.875,0.6364
158,0,1.0,1.0,1.0,1.0
159,0,1.0,0.6265,0.4,0.4
160,0,0.0,0.0,0.0,0.0
161,0,1.0,1.0,1.0,1.0
162,0,1.0,0.7,0.25,0.5
163,0,1.0,0.5067,0.9091,0.5263
164,0,0.0,0.4337,0.3333,0.2
165,0,1.0,0.5455,0.4,0.8
166,0,1.0,0.9505,0.75,1.0
167,0,0.2,0.1277,0.0,0.0
168,0,1.0,1.0,1.0,1.0
169,0,1.0,0.6423,0.4444,1.0
170,0,1.0,0.6316,0.6,0.6
171,0,1.0,1.0,1.0,1.0
172,0,1.0,0.8767,0.75,0.75
173,0,0.0,0.2391,0.3333,0.1429
174,0,0.0,0.1429,0.0,0.0
175,0,1.0,0.3867,0.1,0.25
176,0,0.0,0.0,0.0,0.0
177,0,0.1667,0.1798,0.0,0.0
178,0,0.0,0.0,0.0,0.0
179,0,1.0,1.0,1.0,1.0
180,0,1.0,1.0,1.0,1.0
181,0,1.0,0.5067,0.5,0.3333
182,0,0.6,0.36,0.0,0.0
183,0,1.0,0.9231,1.0,1.0
184,0,0.1667,0.2667,0.0,0.0
185,0,1.0,0.8788,0.75,1.0
186,0,0.0,0.0,0.0,0.0
187,0,0.1818,0.2791,0.0,0.0
188,0,1.0,0.7619,0.5714,0.4444
189,0,1.0,0.7209,0.375,0.3
190,0,0.0,0.0625,0.0,0.0
191,0,1.0,0.4091,0.75,0.2727
192,0,1.0,0.4783,0.25,0.3333
193,0,1.0,0.5618,0.6667,0.3636
194,0,1.0,0.6579,0.6667,0.5
195,0,1.0,0.7848,0.8,0.8
196,0,1.0,0.8713,1.0,0.75
197,0,1.0,0.8062,0.75,0.6667
198,0,0.0,0.3036,0.0,0.0
199,0,1.0,0.5789,0.5,0.4286
200,0,0.2,0.1569,0.0,0.0
201,0,0.2,0.2581,0.0,0.0
202,0,1.0,0.625,0.8333,0.5
203,0,1.0,0.5714,0.5,0.4286
204,0,0.0,0.4381,0.4,0.2
205,0,0.0,0.2989,0.0,0.0
206,0,1.0,0.7379,0.5,0.6667
207,0,1.0,0.5056,0.8571,0.25
208,0,1.0,0.3171,0.3333,0.1429
209,0,1.0,0.4737,0.2,0.1429
210,0,0.0,0.4727,0.5,0.25
211,0,0.3077,0.3556,0.1667,0.25
212,0,0.0,0.3371,0.0,0.0
213,0,1.0,0.8421,1.0,0.8
214,0,1.0,0.746,0.8333,0.5556
215,0,0.0,0.0,0.0,0.0
216,0,1.0,0.7302,0.7143,0.625
217,0,1.0,0.5217,0.5,0.3333
218,0,1.0,0.5652,0.3333,0.3333
219,0,0.0,0.2667,0.5,0.125
220,0,1.0,0.5405,0.6,0.5
221,0,0.3077,0.3636,0.25,0.0833
222,0,1.0,0.6833,0.6667,0.6667
223,0,1.0,0.361,0.5,0.1364
224,0,1.0,0.7765,0.8,0.8
225,0,1.0,0.6111,0.375,0.75
226,0,1.0,0.4144,0.2857,0.4
227,0,1.0,0.5357,0.5,0.4286
228,0,0.5,0.4062,0.3333,0.1
229,0,0.0,0.1613,0.0,0.0
230,0,1.0,0.807,1.0,0.8
231,0,0.0,0.0769,0.0,0.0
232,0,0.0,0.0,0.0,0.0
233,0,0.0,0.0,0.0,0.0
234,0,1.0,0.6981,0.6,0.4286
235,0,1.0,0.5,0.6667,0.5
236,0,0.0,0.6667,0.75,0.5
237,0,0.2222,0.1707,0.0,0.0
238,0,0.0,0.2301,0.1429,0.1
239,0,1.0,0.5641,0.5,0.4
240,0,1.0,0.5455,0.5,0.2857
241,0,1.0,0.4615,0.6,0.5
242,0,1.0,0.5814,0.8,0.4
243,0,0.0,0.2899,0.2,0.25
244,0,1.0,0.3944,0.25,0.1667
245,0,1.0,0.5255,0.3333,0.25
246,0,1.0,0.5,0.5,0.3333
247,0,1.0,0.9268,1.0,1.0
248,0,1.0,0.4146,0.6667,0.3333
249,0,1.0,0.4,0.25,0.1667
250,0,1.0,1.0,1.0,1.0
251,0,0.0,0.4045,0.3333,0.25
252,0,0.0,0.5429,0.3333,0.3333
253,0,1.0,1.0,1.0,1.0
254,0,1.0,0.2785,0.0909,0.5
255,0,0.0,0.5143,0.4,0.5
256,0,1.0,1.0,1.0,1.0
257,0,0.0,0.2619,0.3333,0.1667
258,0,1.0,1.0,1.0,1.0
259,0,0.0,0.0625,0.0,0.0
260,0,0.0,0.2308,0.0,0.0
261,0,0.2857,0.303,0.5,0.3333
262,0,1.0,0.6909,0.5,0.6
263,0,0.3077,0.4416,0.0,0.0
264,0,0.3077,0.3789,0.0,0.0
265,0,1.0,0.544,0.6667,0.4444
266,0,0.0,0.2,0.6667,0.25
267,0,0.2,0.1579,0.0,0.0
268,0,1.0,1.0,1.0,1.0
269,0,0.0,0.0,0.0,0.0
270,0,1.0,1.0,1.0,1.0
271,0,1.0,0.7059,0.8333,0.7143
272,0,0.4,0.3409,0.0,0.0
273,0,1.0,0.2056,0.5,0.1667
274,0,0.0,0.0,0.0,0.0
275,0,1.0,0.25,0.5,0.2
276,0,1.0,0.2958,0.3333,0.0833
277,0,0.3333,0.3846,0.6667,0.25
278,0,0.3333,0.3,0.3333,0.1667
279,0,0.0,0.117,0.0,0.0
280,0,1.0,0.189,0.125,0.5
281,0,1.0,0.8283,1.0,0.75
282,0,0.0,0.2241,0.0,0.0
283,0,1.0,0.6405,0.5714,0.6667
284,0,1.0,1.0,1.0,1.0
285,0,0.0,0.2899,0.0,0.0
286,0,1.0,0.7105,0.3333,0.3333
287,0,0.5,0.2609,0.0,0.0
288,0,1.0,0.4,0.125,0.2
289,0,0.2857,0.2571,0.3333,0.1667
290,0,1.0,1.0,1.0,1.0
291,0,0.2,0.3659,0.0,0.0
292,0,0.2,0.2887,0.0,0.0
293,0,0.1818,0.4696,0.25,0.25
294,0,0.0,0.4774,0.1429,0.25
295,0,1.0,0.7111,0.5,0.4
296,0,0.2,0.4496,0.3333,0.2
297,0,1.0,1.0,1.0,1.0
298,0,0.0,0.3014,0.0,0.0
299,0,1.0,0.3867,0.5,0.1429
300,0,0.0,0.0,0.0,0.0
301,0,0.1333,0.5075,0.125,0.5
302,0,1.0,1.0,1.0,1.0
303,0,0.0,0.2857,0.0,0.0
304,0,0.0,0.2885,0.3333,0.1667
305,0,0.3333,0.3333,0.3333,0.25
306,0,0.0,0.3239,0.0,0.0
307,0,1.0,0.6494,0.3333,0.25
308,0,0.0,0.2326,0.0,0.0
309,0,0.0,0.2326,0.0,0.0
310,0,0.0,0.2353,0.0,0.0
311,0,1.0,0.5294,0.3333,0.5
312,0,1.0,0.5263,0.6667,0.25
313,0,0.0,0.1905,0.25,0.0909
314,0,0.25,0.3654,0.25,0.1429
315,0,0.2,0.2772,0.3333,0.1429
316,0,0.0,0.0,0.0,0.0
317,0,0.0,0.3562,0.3333,0.1
318,0,0.4,0.4474,0.5,0.1667
319,0,1.0,1.0,1.0,1.0
320,0,0.2222,0.1714,0.0,0.0
321,0,0.1818,0.0976,0.0,0.0
322,0,1.0,0.5825,1.0,0.4
323,0,0.0,0.4828,0.1667,0.1667
324,0,0.2,0.2222,0.0,0.0
325,0,1.0,1.0,1.0,1.0
326,0,1.0,1.0,1.0,1.0
327,0,1.0,1.0,1.0,1.0
328,0,1.0,1.0,1.0,1.0
329,0,1.0,1.0,1.0,1.0
330,0,0.2857,0.4058,0.3333,0.25
331,0,1.0,0.4348,0.5,0.2
332,0,1.0,1.0,1.0,1.0
333,0,0.4286,0.459,0.4,0.125
334,0,1.0,0.478,0.1667,0.25
335,0,0.6667,0.3415,0.0,0.0
336,0,1.0,0.7209,0.5,0.5
337,0,0.0,0.2326,0.3333,0.25
338,0,0.0,0.2299,0.3333,0.25
339,0,0.0,0.2299,0.3333,0.25
340,0,1.0,0.1299,1.0,0.1429
341,0,1.0,0.7606,0.7,0.7778
342,0,0.4286,0.4516,0.25,0.1667
343,0,0.0,0.2143,0.0,0.0
344,0,0.0,0.2407,0.0,0.0
345,0,1.0,0.5652,0.6,0.375
346,0,0.1818,0.4146,0.1667,0.1667
347,0,0.2222,0.4314,0.6667,0.3333
348,0,0.0,0.2222,0.3333,0.2
349,0,0.0,0.186,0.0,0.0
350,0,0.3333,0.4054,0.0,0.0
351,0,1.0,0.338,0.2,0.5
352,0,0.8571,0.8317,0.6,0.6
353,0,1.0,1.0,1.0,1.0
354,0,0.4,0.28,0.0,0.0
355,0,1.0,0.6076,0.4,0.4
356,0,0.3333,0.4478,0.2,0.3333
357,0,1.0,0.8649,0.75,0.75
358,0,0.2857,0.2593,0.0,0.0
359,0,0.0,0.1818,0.0,0.0
360,0,1.0,0.9655,1.0,1.0
361,0,0.0,0.6275,0.5,0.25
362,0,0.3333,0.3415,0.3333,0.3333
363,0,0.5455,0.3556,0.1429,0.125
364,0,1.0,1.0,1.0,1.0
365,0,1.0,0.7241,0.75,0.6
366,0,0.4,0.3143,0.0,0.0
367,0,0.5,0.3385,0.0,0.0
368,0,0.5,0.3826,0.0,0.0
369,0,1.0,0.7805,0.5,0.5714
370,0,1.0,0.9388,1.0,1.0
371,0,0.2,0.0618,0.0,0.0
372,0,0.125,0.2623,0.0,0.0
373,0,0.0,0.3103,0.0,0.0
374,0,0.0,0.1667,0.0,0.0
375,0,0.2222,0.3871,0.3571,0.4167
376,0,0.0,0.0833,0.0,0.0
377,0,0.0,0.114,0.3333,0.037
378,0,0.2222,0.2857,0.0,0.0
379,0,1.0,0.4483,0.3333,0.25
380,0,1.0,0.4737,1.0,0.6
381,0,0.0,0.4421,0.3333,0.25
382,0,1.0,0.4412,0.6667,0.3333
383,0,0.0,0.24,0.0,0.0
384,0,1.0,1.0,1.0,1.0
385,0,0.0,0.7379,0.625,0.7143
386,0,0.4,0.4737,0.0,0.0
387,0,0.25,0.3115,0.0,0.0
388,0,1.0,1.0,1.0,1.0
389,0,0.0,0.2941,0.0,0.0
390,0,1.0,0.2807,0.5,0.1667
391,0,1.0,0.8525,1.0,0.7143
392,0,1.0,1.0,1.0,1.0
393,0,1.0,0.8197,1.0,0.7143
394,0,1.0,0.68,0.75,0.6
395,0,0.2222,0.25,0.0,0.0
396,0,1.0,0.5581,0.3333,0.5
397,0,0.25,0.52,0.3333,0.25
398,0,0.2857,0.129,0.0,0.0
399,0,0.1667,0.3368,0.0,0.0
400,0,0.0,0.25,0.3333,0.2
401,0,0.25,0.3659,0.3333,0.2
402,0,0.3333,0.3636,0.3333,0.2
403,0,1.0,0.4959,0.375,0.375
404,0,0.0,0.2462,0.3333,0.1667
405,0,0.4,0.2195,0.0,0.0
406,0,0.1667,0.04,0.0,0.0
407,0,0.4,0.1944,0.0,0.0
408,0,0.0,0.0,0.0,0.0
409,0,1.0,0.1351,1.0,0.1
410,0,0.0,0.2597,0.25,0.125
411,0,0.4444,0.48,0.5,0.3333
412,0,0.0,0.0846,0.3333,0.0208
413,0,1.0,1.0,1.0,1.0
414,0,0.0,0.069,0.0,0.0
415,0,0.4,0.2424,0.3333,0.1111
416,0,0.0,0.3182,0.3333,0.3333
417,0,0.0,0.0345,0.0,0.0
418,0,1.0,0.8261,0.6667,0.6667
419,0,0.0,0.0,0.0,0.0
420,0,1.0,0.5116,0.4,0.2857
421,0,0.0,0.336,0.125,0.1429
422,0,0.25,0.339,0.125,0.1667
423,0,0.25,0.3607,0.3333,0.1667
424,0,0.0,0.2195,0.3333,0.1429
425,0,1.0,1.0,1.0,1.0
426,0,0.0,0.2778,0.0,0.0
427,0,1.0,0.7778,0.6667,0.5
428,0,0.0,0.3529,0.3333,0.25
429,0,1.0,0.8125,0.6667,0.6667
430,0,1.0,0.4828,0.6667,0.3333
431,0,1.0,0.5312,0.6,0.6
432,0,1.0,0.4242,0.5,0.25
433,0,0.0,0.25,0.0,0.0
434,0,0.1818,0.62,0.5,0.2857
435,0,0.2,0.459,0.2,0.2
436,0,1.0,1.0,1.0,1.0
437,0,0.0,0.3396,0.0,0.0
438,0,0.0,0.1622,0.0,0.0
439,0,1.0,0.5161,1.0,0.4286
440,0,0.0,0.8395,0.6667,0.8
441,0,1.0,0.6575,0.3333,0.2
442,0,0.0,0.0,0.0,0.0
443,0,0.0,0.0,0.0,0.0
444,0,0.2,0.3396,0.0,0.0
445,0,0.0,0.3902,0.3333,0.3333
446,0,0.2857,0.4,0.0,0.0
447,0,0.0,0.5429,0.4,0.4
448,0,0.0,0.3333,0.3333,0.25
449,0,0.25,0.7097,0.6667,0.8
450,0,0.0,0.2333,0.0,0.0
451,0,0.0,0.1935,0.0,0.0
452,0,0.0,0.0,0.0,0.0
453,0,1.0,1.0,1.0,1.0
454,0,1.0,0.4146,0.6667,0.25
455,0,0.0,0.3889,0.0,0.0
456,0,0.0,0.1739,0.0,0.0
457,0,0.0,0.2,0.3333,0.125
458,0,1.0,0.9583,1.0,1.0
459,0,1.0,0.0374,0.023,0.8
460,0,0.0,0.3636,0.0,0.0
461,0,1.0,0.9867,0.8,0.8
462,0,1.0,1.0,1.0,1.0
463,0,0.25,0.2044,0.3333,0.1111
464,0,0.0,0.0,0.0,0.0
465,0,1.0,0.2941,0.5,0.125
466,0,0.2222,0.1471,0.0,0.0
467,0,1.0,1.0,1.0,1.0
468,0,0.0,0.9041,1.0,0.6667
469,0,0.0,0.254,0.0,0.0
470,0,0.0,0.08,0.0,0.0
471,0,0.5714,0.5143,0.3333,0.3333
472,0,1.0,0.4545,0.3333,0.25
473,0,1.0,1.0,1.0,1.0
474,0,1.0,0.9438,0.8333,0.8333
475,0,0.0,0.3243,0.3333,0.3333
476,0,0.0,0.3158,0.2,0.1667
477,0,0.0,0.2581,0.0,0.0
478,0,1.0,1.0,1.0,1.0
479,0,1.0,1.0,1.0,1.0
480,0,1.0,0.5128,0.3333,0.25
481,0,1.0,0.7778,0.6667,0.6667
482,0,0.0,0.0,0.0,0.0
483,0,0.4,0.3,0.3333,0.2
484,0,1.0,0.5769,0.6667,0.6667
485,0,1.0,0.3,1.0,0.1667
486,0,1.0,0.3409,0.5,0.2
487,0,1.0,1.0,1.0,1.0
488,0,1.0,0.7097,0.3333,0.5
489,0,0.3636,0.2353,0.0,0.0
490,0,1.0,1.0,1.0,1.0
491,0,0.2,0.2,0.0,0.0
492,0,1.0,0.4167,0.3333,0.3333
493,0,1.0,0.6261,0.6667,0.4444
494,0,0.0,0.1765,0.0,0.0
495,0,1.0,0.8817,0.8333,0.8333
496,0,0.3077,0.6667,0.5,0.75
497,0,0.0,0.2469,0.0,0.0
498,0,0.4,0.7089,0.5,0.5
499,0,0.0,0.2526,0.0,0.0
500,0,0.0,0.0923,0.0,0.0
501,0,1.0,0.6154,0.5,0.5
502,0,0.0,0.3226,0.1667,0.0909
503,0,1.0,1.0,1.0,1.0
504,0,0.0,0.2632,0.0,0.0
505,0,0.0,0.0,0.0,0.0
506,0,0.2857,0.2604,0.0,0.0
507,0,0.1667,0.3158,0.0,0.0
508,0,1.0,0.8519,0.5,0.5
509,0,1.0,0.6667,1.0,0.6
510,0,0.0,0.125,0.0,0.0
511,0,0.2,0.3448,0.0,0.0
512,0,0.1538,0.4444,0.0,0.0
513,0,0.0,0.0809,0.3333,0.025
514,0,0.0,0.0135,0.3333,0.0047
515,0,0.25,0.2549,0.0,0.0
516,0,0.5,0.3582,0.3333,0.25
517,0,1.0,1.0,1.0,1.0
518,0,0.0,0.3188,0.3333,0.2
519,0,0.0,0.2466,0.3333,0.1667
520,0,1.0,0.6462,1.0,0.6
521,0,0.2857,0.2833,0.0,0.0
522,0,0.3333,0.4444,0.3333,0.3333
523,0,0.0,0.24,0.3333,0.0909
524,0,0.0,0.25,0.3333,0.0909
525,0,1.0,0.8667,0.8,0.8
526,0,0.0,0.8936,1.0,0.7143
527,0,0.3636,0.2526,0.5,0.125
528,0,0.0,0.1651,0.0,0.0
529,0,0.0,0.3704,0.3333,0.25
530,0,0.0,0.1858,0.3333,0.0588
531,0,1.0,0.4255,0.25,0.3333
532,0,0.0,0.2062,0.0,0.0
533,0,1.0,0.3346,0.6667,0.1111
534,0,1.0,1.0,1.0,1.0
535,0,1.0,1.0,1.0,1.0
536,0,1.0,0.747,1.0,0.6667
537,0,0.2,0.2419,0.25,0.0833
538,0,0.2,0.0811,0.5,0.0667
539,0,0.0,0.5,0.5,0.75
540,0,1.0,0.8286,0.75,0.6
541,0,0.2222,0.3188,0.3333,0.3333
542,0,1.0,1.0,1.0,1.0
543,0,0.0,0.2442,0.0909,0.1667
544,0,0.1818,0.2796,0.0,0.0
545,0,1.0,1.0,1.0,1.0
546,0,0.0,0.0,0.0,0.0
547,0,0.0,0.129,0.0,0.0
548,0,0.4444,0.5517,0.2,0.3333
549,0,0.0,0.7826,0.75,1.0
550,0,1.0,0.5556,0.5,0.3333
551,0,0.1818,0.3111,0.0,0.0
552,0,0.2857,0.6933,0.75,0.75
553,0,0.4444,0.5867,0.5,0.3333
554,0,1.0,1.0,1.0,1.0
555,0,0.0,0.0789,0.0,0.0
556,0,0.4,0.3885,0.0,0.0
557,0,0.2222,0.3704,0.1429,0.125
558,0,0.2667,0.7143,0.0,0.0
559,0,1.0,0.2727,1.0,0.2
560,0,0.2,0.1818,0.3333,0.0769
561,0,0.3333,0.3125,0.0,0.0
562,0,1.0,0.835,0.8,0.6667
563,0,0.375,0.5,0.3333,0.4
564,0,1.0,0.6714,0.4286,0.5
565,0,0.25,0.4397,0.3333,0.1667
566,0,1.0,0.2778,0.5,0.25
567,0,0.0,0.1774,0.0,0.0
568,0,1.0,0.8145,0.7059,0.6
569,0,1.0,0.9388,1.0,1.0
570,0,1.0,0.6234,1.0,0.6
571,0,1.0,0.8679,0.7143,0.8333
572,0,1.0,0.9308,0.8571,0.8571
573,0,1.0,0.6111,0.3333,0.5
574,0,0.4,0.2,0.0,0.0
575,0,0.0,0.1795,0.0,0.0
576,0,0.0,0.0,0.0,0.0
577,0,0.0,0.0,0.0,0.0
578,0,0.0,0.2989,0.0,0.0
579,0,0.0,0.4727,0.5,0.3333
580,0,0.4444,0.5318,0.4,0.4
581,0,1.0,0.7347,0.6667,0.5
582,0,0.0,0.3564,0.25,0.1667
583,0,0.3333,0.177,0.0,0.0
584,0,0.6,0.3368,0.0,0.0
585,0,1.0,0.3961,0.1111,0.2
586,0,0.4444,0.1714,0.0,0.0
587,0,0.0,0.1818,0.3333,0.125
588,0,0.0,0.2261,0.3333,0.1111
589,0,0.0,0.24,0.5,0.0833
590,0,0.25,0.2133,0.0,0.0
591,0,0.0,0.2542,0.3333,0.1111
592,0,0.5,0.2655,0.0,0.0
593,0,1.0,0.7931,0.5,0.75
594,0,1.0,0.6316,0.6667,0.5
595,0,0.2222,0.3333,0.2,0.1667
596,0,1.0,0.7308,0.3333,0.3333
597,0,1.0,0.6494,0.5,0.5
598,0,0.2857,0.1579,0.0,0.0
599,0,1.0,0.4176,0.5,0.2857
600,0,1.0,1.0,1.0,1.0
601,0,1.0,0.5556,0.3333,0.3333
602,0,0.25,0.2162,0.0,0.0
603,0,0.2857,0.4255,0.0,0.0
604,0,0.3333,0.3214,0.0,0.0
605,0,0.0,0.3562,0.6,0.5
606,0,0.0,0.359,0.5,0.5
607,0,0.2667,0.1875,0.0,0.0
608,0,1.0,0.9143,1.0,1.0
609,0,1.0,1.0,1.0,1.0
610,0,0.0,0.1739,0.0,0.0
611,0,0.1667,0.2083,0.0,0.0
612,0,0.2857,0.3235,0.1429,0.3333
613,0,0.0,0.0704,0.0,0.0
614,0,0.3333,0.5556,0.2,0.3333
615,0,0.0,0.2632,0.3333,0.25
616,0,1.0,0.6383,1.0,0.6
617,0,1.0,0.4314,0.6667,0.2857
618,0,0.3333,0.2642,0.0,0.0
619,0,1.0,1.0,1.0,1.0
620,0,1.0,0.432,0.6667,0.25
621,0,0.0,0.1493,0.0,0.0
622,0,0.1818,0.3761,0.2,0.1429
623,0,0.4444,0.1154,0.0,0.0
624,0,1.0,0.8095,0.6667,0.8
625,0,0.0,0.125,0.0,0.0
626,0,1.0,0.6456,0.8571,0.5455
627,0,1.0,0.7917,1.0,0.8333
628,0,0.0,0.1734,0.6667,0.1333
629,0,1.0,0.8974,0.8,0.6667
630,0,1.0,0.3678,0.6,0.2727
631,0,0.3333,0.2388,0.0,0.0
632,0,0.3333,0.32,0.3333,0.3333
633,0,1.0,0.6769,0.5,0.6667
634,0,0.2222,0.4235,0.1429,0.3333
635,0,1.0,0.6737,0.6667,0.6667
636,0,0.0,0.0,0.0,0.0
637,0,0.0,0.2143,0.0,0.0
638,0,0.0,0.0,0.0,0.0
639,0,0.0,0.2044,0.0,0.0
640,0,0.1818,0.5825,0.6667,0.3333
641,0,1.0,0.6977,0.6667,0.4444
642,0,0.0,0.5231,0.6667,0.4
643,0,0.3077,0.4882,0.25,0.1667
644,0,0.4444,0.0368,0.0,0.0
645,0,0.0,0.0,0.0,0.0
646,0,0.0,0.2969,0.25,0.0833
647,0,1.0,1.0,1.0,1.0
648,0,0.0,0.299,0.2308,0.3333
649,0,1.0,1.0,1.0,1.0
650,0,1.0,0.5909,0.8,0.5714
651,0,1.0,0.5528,0.8,0.4
652,0,1.0,0.5896,0.8,0.3636
653,0,0.0,0.2069,0.3333,0.1111
654,0,1.0,0.2791,0.1111,0.3333
655,0,1.0,1.0,1.0,1.0
656,0,0.2222,0.5745,0.5,0.2
657,0,0.4,0.3846,0.125,0.3333
658,0,0.0,0.4935,0.3333,0.6667
659,0,0.2,0.3111,0.5,0.3333
660,0,0.6667,0.5455,0.6667,0.4
661,0,1.0,0.6739,0.6,0.6
662,0,0.0,0.0,0.0,0.0
663,0,0.2222,0.5,0.3333,0.6667
664,0,0.0,0.8,1.0,0.5
665,0,0.1818,0.3793,0.0,0.0
666,0,0.0,0.1905,0.0,0.0
667,0,0.3636,0.2979,0.0,0.0
668,0,0.0,0.5366,0.4,0.6667
669,0,1.0,1.0,1.0,1.0
670,0,1.0,0.675,0.5,0.5
671,0,0.0,0.0494,0.0,0.0
672,0,0.0,0.3607,0.0,0.0
673,0,1.0,1.0,1.0,1.0
674,0,0.25,0.359,0.3333,0.5
675,0,0.4444,0.0612,0.0,0.0
676,0,0.4,0.2,0.0,0.0
677,0,1.0,1.0,1.0,1.0
678,0,0.2857,0.1899,0.0714,0.3333
679,0,1.0,1.0,1.0,1.0
680,0,0.0,0.4231,0.25,0.3333
681,0,0.0,0.3,0.25,0.2
682,0,0.0,0.0,0.0,0.0
683,0,0.0,0.0,0.0,0.0
684,0,1.0,1.0,1.0,1.0
685,0,0.0,0.0,0.0,0.0
686,0,0.0,0.359,0.0,0.0
687,0,1.0,0.1687,0.75,0.1071
688,0,1.0,0.5378,0.4286,0.5
689,0,1.0,0.8649,0.8333,0.8333
690,0,1.0,0.7447,0.8333,0.625
691,0,1.0,0.7407,0.75,0.6667
692,0,1.0,0.78,0.8,0.6667
693,0,0.0,0.0217,0.0,0.0
694,0,0.2222,0.3218,0.125,0.2
695,0,0.2,0.1667,0.0,0.0
696,0,1.0,1.0,1.0,1.0
697,0,1.0,1.0,1.0,1.0
698,0,0.0,0.3721,0.0,0.0
699,0,0.1818,0.3014,0.2857,0.2857
700,0,0.3333,0.2308,0.0,0.0
701,0,0.2,0.3043,0.125,0.25
702,0,0.0,0.1538,0.0,0.0
703,0,0.2222,0.4,0.3333,0.2
704,0,0.3333,0.6316,0.4,0.5
705,0,0.6667,0.5714,0.4,1.0
706,0,1.0,0.7473,0.6667,0.6667
707,0,0.4,0.1905,0.5,0.3333
708,0,0.1818,0.4921,0.2857,0.2
709,0,0.0,0.4176,0.5,0.3333
710,0,0.2,0.3878,0.25,0.125
711,0,1.0,0.4086,0.6667,0.2222
712,0,0.0,0.2353,0.0,0.0
713,0,0.0,0.2742,0.25,0.0909
714,0,0.0,0.3036,0.5,0.1818
715,0,0.2,0.2444,0.0,0.0
716,0,1.0,0.45,0.3333,0.5
717,0,0.3077,0.1808,0.0,0.0
718,0,0.6154,0.4742,0.2,0.1667
719,0,1.0,1.0,1.0,1.0
720,0,1.0,0.6512,0.6,0.5
721,0,0.3077,0.3011,0.0,0.0
722,0,0.2,0.5172,0.25,0.3333
723,0,0.0,0.0714,0.0,0.0
724,0,0.25,0.4242,0.3333,0.2857
725,0,0.0,0.3709,0.0,0.0
726,0,0.25,0.2075,0.3333,0.1
727,0,1.0,0.7045,0.6,0.5
728,0,0.1818,0.2822,0.0,0.0
729,0,0.0,0.3636,0.0,0.0
730,0,1.0,0.6226,0.8,0.5714
731,0,0.0,0.4,0.5,0.3333
732,0,0.2222,0.24,0.0,0.0
733,0,0.0,0.28,0.3333,0.25
734,0,0.4444,0.12,0.0,0.0
735,0,1.0,0.7105,1.0,0.8
736,0,0.2222,0.1739,0.0,0.0
737,0,0.0,0.2222,0.0,0.0
738,0,1.0,1.0,1.0,1.0
739,0,0.2857,0.3353,0.0,0.0
740,0,1.0,0.7065,0.625,0.625
741,0,0.3333,0.5577,0.4286,0.4286
742,0,0.2857,0.381,0.25,0.1111
743,0,0.2857,0.25,0.0,0.0
744,0,1.0,0.236,0.6667,0.125
745,0,0.0,0.1699,0.0,0.0
746,0,1.0,0.5085,0.4,0.2857
747,0,0.0,0.0,0.0,0.0
748,0,0.2222,0.12,0.0,0.0
749,0,1.0,1.0,1.0,1.0
750,0,0.25,0.1143,0.0,0.0
751,0,0.2,0.5828,0.5,0.3333
752,0,0.0,0.3913,0.0,0.0
753,0,0.3333,0.3019,0.3333,0.25
754,0,0.0,0.1591,0.3333,0.1111
755,0,1.0,0.5055,0.6667,0.2222
756,0,1.0,0.8,0.6667,0.8
757,0,0.0,0.1325,0.3333,0.0588
758,0,1.0,0.6512,0.5,0.5
759,0,1.0,1.0,1.0,1.0
760,0,0.2,0.0314,0.0,0.0
761,0,1.0,0.7711,0.6,0.6
762,0,1.0,0.4835,0.2857,0.6667
763,0,0.0,0.5946,0.25,0.25
764,0,0.0,0.2537,0.3333,0.0714
765,0,0.1818,0.4031,0.2,0.1111
766,0,0.0,0.0,0.0,0.0
767,0,0.25,0.5977,0.3333,0.25
768,0,0.25,0.1333,0.0,0.0
769,0,1.0,0.5417,0.3333,0.3333
770,0,0.2222,0.4717,0.2,0.1667
771,0,1.0,0.6329,1.0,0.6
772,0,0.0,0.3178,0.3333,0.2
773,0,0.0,0.3187,0.2,0.1429
774,0,1.0,0.5263,1.0,0.5
775,0,1.0,0.5652,0.6,0.5
776,0,1.0,0.6861,0.5,0.5
777,0,0.3333,0.25,0.1667,0.1667
778,0,0.1176,0.6222,0.3333,0.5
779,0,1.0,1.0,1.0,1.0
780,0,0.0,0.2143,0.0,0.0
781,0,0.0,0.0,0.0,0.0
782,0,0.0,0.0,0.0,0.0
783,0,1.0,0.3291,0.6667,0.2857
784,0,0.0,0.2553,0.3333,0.1429
785,0,0.2222,0.3871,0.2,0.3333
786,0,1.0,0.4828,0.3333,0.3333
787,0,0.0,0.2391,0.3333,0.1667
788,0,1.0,0.9091,0.6667,0.6667
789,0,0.0,0.1606,0.3333,0.1111
790,0,0.2667,0.487,0.5,0.1818
791,0,1.0,0.7254,0.7143,0.5
792,0,0.0,0.0923,0.3333,0.0714
793,0,0.3636,0.1867,0.0,0.0
794,0,0.3636,0.4385,0.25,0.0714
795,0,0.0,0.0204,0.0,0.0
796,0,1.0,0.3448,0.6667,0.25
797,0,1.0,0.2723,1.0,0.2727
798,0,0.3333,0.375,0.1111,0.3333
799,0,1.0,0.6197,0.6667,0.5
800,0,0.1176,0.3551,0.0,0.0
801,0,0.2857,0.7952,0.4,0.5
802,0,0.0,0.3492,0.3333,0.25
803,0,1.0,0.9545,1.0,1.0
804,0,1.0,1.0,1.0,1.0
805,0,1.0,0.4918,0.4,0.2222
806,0,0.0,0.0,0.0,0.0
807,0,0.1818,0.1818,0.0,0.0
808,0,0.0,0.3939,0.3333,0.2
809,0,0.0,0.2857,0.0,0.0
810,0,1.0,0.5306,0.6667,0.5
811,0,1.0,0.6133,0.0,0.0
812,0,0.0,0.3768,0.3333,0.3333
813,0,0.0,0.1724,0.3333,0.1111
814,0,0.4,0.2836,0.0,0.0
815,0,1.0,1.0,1.0,1.0
816,0,1.0,0.3636,0.6667,0.2857
817,0,0.4444,0.4286,0.5,0.2857
818,0,1.0,0.7419,0.6667,0.8
819,0,0.2857,0.7407,0.6667,0.6667
820,0,0.2,0.0833,0.0,0.0
821,0,0.0,0.0,0.0,0.0
822,0,0.0,0.25,0.0,0.0
823,0,1.0,0.8261,0.8,0.8
824,0,0.2857,0.25,0.1667,0.2
825,0,1.0,0.3774,0.6667,0.5
826,0,1.0,0.5263,0.5,0.3333
827,0,0.0,0.1905,0.0,0.0
828,0,0.3529,0.5278,0.0,0.0
829,0,1.0,1.0,1.0,1.0
830,0,0.0,0.2278,0.3333,0.1667
831,0,0.2,0.2564,0.25,0.5
832,0,0.1818,0.2033,0.2,0.0357
833,0,0.0,0.1786,0.3333,0.0667
834,0,1.0,0.1755,0.0151,0.1
835,0,1.0,0.7152,0.7143,0.5556
836,0,1.0,0.3409,0.6667,0.2857
837,0,0.2,0.4272,0.0,0.0
838,0,1.0,0.8108,0.5,0.5
839,0,1.0,0.8049,0.3333,0.5
840,0,0.0,0.1146,0.3333,0.1
841,0,0.0,0.125,0.3333,0.125
842,0,1.0,0.8175,0.75,0.6667
843,0,0.0,0.2909,0.3333,0.2
844,0,0.1818,0.6078,0.25,0.5
845,0,1.0,0.4478,0.2857,0.1111
846,0,1.0,1.0,1.0,1.0
847,0,0.0,0.0833,0.0,0.0
848,0,0.0,0.1978,0.0,0.0
849,0,1.0,0.7368,0.5,0.3333
850,0,1.0,0.8955,0.5,0.5
851,0,1.0,1.0,1.0,1.0
852,0,1.0,0.8679,0.5,0.5
853,0,1.0,1.0,1.0,1.0
854,0,0.0,0.0,0.0,0.0
855,0,1.0,0.8387,0.5,0.3333
856,0,1.0,1.0,1.0,1.0
857,0,1.0,0.3696,0.5,0.125
858,0,0.4286,0.5263,0.3333,0.25
859,0,0.0,0.3294,0.3333,0.25
860,0,0.0,0.0,0.0,0.0
861,0,1.0,0.776,0.8571,0.6667
862,0,0.0,0.32,0.0,0.0
863,0,1.0,0.5806,0.4,0.3333
864,0,0.3636,0.4091,0.0,0.0
865,0,1.0,0.32,0.125,0.1
866,0,0.3333,0.4828,0.3333,0.3333
867,0,0.3333,0.4062,0.3333,0.25
868,0,1.0,0.7543,0.75,0.6667
869,0,0.25,0.5413,0.2,0.2222
870,0,1.0,0.5294,0.25,1.0
871,0,0.4444,0.1111,0.0,0.0
872,0,1.0,0.1931,0.5,0.0714
873,0,0.0,0.0,0.0,0.0
874,0,1.0,0.6979,0.8,0.4444
875,0,0.25,0.4328,0.125,0.1667
876,0,0.1818,0.3214,0.5,0.125
877,0,0.2,0.2222,0.0,0.0
878,0,0.1667,0.5128,0.5,0.3333
879,0,0.4444,0.3636,0.0,0.0
880,0,0.1667,0.4386,0.0,0.0
881,0,0.0,0.3509,0.5,0.25
882,0,1.0,0.5918,0.6,0.5
883,0,0.0,0.2,0.0,0.0
884,0,0.0,0.7451,0.6667,0.6667
885,0,0.0,0.274,0.0,0.0
886,0,0.0,0.3544,0.3333,0.125
887,0,1.0,1.0,1.0,1.0
888,0,1.0,0.6,0.6667,0.6667
889,0,0.2857,0.3301,0.0,0.0
890,0,0.25,0.4103,0.3333,0.3333
891,0,0.25,0.2051,0.0,0.0
892,0,0.2222,0.2299,0.0,0.0
893,0,0.3077,0.4898,0.3333,0.3333
894,0,0.0,0.0,0.0,0.0
895,0,0.1818,0.3291,0.0,0.0
896,0,0.1818,0.6038,0.4,0.5
897,0,1.0,0.2472,0.25,0.25
898,0,0.3333,0.1818,0.0,0.0
899,0,0.0,0.2716,0.0,0.0
900,0,0.2857,0.3333,0.3333,0.3333
901,0,1.0,1.0,1.0,1.0
902,0,0.0,0.25,0.0,0.0
903,0,0.0,0.0,0.0,0.0
904,0,0.3636,0.4615,0.0,0.0
905,0,0.0,0.4138,0.3333,0.25
906,0,0.25,0.2407,0.0,0.0
907,0,0.0,0.0984,0.0,0.0
908,0,0.0,0.3226,0.3333,0.5
909,0,1.0,0.6866,0.75,0.5
910,0,0.2,0.2692,0.3333,0.125
911,0,0.0,0.2745,0.0,0.0
912,0,1.0,1.0,1.0,1.0
913,0,0.3333,0.1667,0.0,0.0
914,0,0.25,0.3297,0.5,0.1667
915,0,0.2222,0.25,0.0,0.0
916,0,0.3333,0.4865,0.3333,0.3333
917,0,0.0,0.0,0.0,0.0
918,0,0.0,0.0,0.0,0.0
919,0,1.0,0.7755,0.75,1.0
920,0,1.0,0.209,0.1111,0.0833
921,0,0.2857,0.2909,0.0,0.0
922,0,0.0,0.3438,0.3333,0.25
923,0,0.0,0.3235,0.3333,0.25
924,0,0.2,0.304,0.125,0.1429
925,0,1.0,0.8235,1.0,0.7143
926,0,0.0,0.3793,0.3333,0.25
927,0,1.0,0.6207,0.6667,0.5
928,0,0.0,0.0,0.0,0.0
929,0,1.0,0.8158,0.5,0.6667
930,0,0.1818,0.4038,0.1429,0.1667
931,0,0.1818,0.2787,0.3333,0.1111
932,0,0.0,0.3099,0.6667,0.2857
933,0,1.0,0.6857,0.7143,0.7143
934,0,0.1818,0.2024,0.25,0.05
935,0,0.1667,0.3191,0.6667,0.2
936,0,0.2,0.2353,0.0,0.0
937,0,0.0,0.369,0.0,0.0
938,0,0.2857,0.4458,0.2,0.2857
939,0,0.1538,0.5938,0.5,0.4
940,0,0.2,0.2759,0.0,0.0
941,0,0.1818,0.3546,0.1111,0.125
942,0,0.1818,0.2449,0.1429,0.0833
943,0,0.0,0.1887,0.0,0.0
944,0,0.3333,0.3509,0.0,0.0
945,0,1.0,0.6813,0.6667,0.4
946,0,0.0,0.0984,0.0,0.0
947,0,0.1818,0.1111,0.0,0.0
948,0,0.5,0.4267,0.3333,0.5
949,0,1.0,0.3438,0.3333,0.2
950,0,0.0,0.0,0.0,0.0
951,0,0.0,0.2308,0.3333,0.5
952,0,0.0,0.4412,0.3333,0.3333
953,0,0.0,0.1846,0.1667,0.5
954,0,0.2857,0.5417,0.0,0.0
955,0,0.2857,0.3051,0.0,0.0
956,0,0.0,0.38,0.1333,0.2857
957,0,1.0,0.4308,0.6667,0.4
958,0,0.2857,0.2727,0.0,0.0
959,0,1.0,0.7368,0.6667,0.6667
960,0,1.0,1.0,1.0,1.0
961,0,1.0,0.9583,1.0,1.0
962,0,0.3333,0.0506,0.0,0.0
963,0,0.0,0.1875,0.3333,0.0588
964,0,0.0,0.2642,0.2,0.0909
965,0,0.0,0.1474,0.3333,0.1429
966,0,0.0,0.0,0.0,0.0
967,0,1.0,0.7869,0.6667,0.6667
968,0,0.0,0.2857,0.3333,0.1667
969,0,1.0,1.0,1.0,1.0
970,0,0.0,0.2667,0.3333,0.1667
971,0,0.0,0.4444,0.0,0.0
972,0,1.0,0.6667,0.5,1.0
973,0,0.0,0.3958,0.1429,0.2857
974,0,0.0,0.6167,0.3333,0.2
975,0,0.0,0.1875,0.0,0.0
976,0,0.0,0.1709,0.3333,0.0833
977,0,0.2,0.2118,0.0,0.0
978,0,1.0,1.0,1.0,1.0
979,0,0.0,0.2278,0.0,0.0
980,0,1.0,0.6,0.6667,0.25
981,0,0.0,0.2655,0.3333,0.125
982,0,1.0,0.4602,0.75,0.3
983,0,0.0,0.3038,0.3333,0.1429
984,0,0.25,0.2716,0.3333,0.1111
985,0,0.0,0.3455,0.0,0.0
986,0,1.0,0.8762,0.8,0.6667
987,0,0.0,0.1277,0.0,0.0
988,0,0.2,0.0909,0.0,0.0
989,0,0.0,0.3571,0.6667,0.2857
990,0,0.0,0.3571,0.6667,0.2857
991,0,0.2222,0.2727,0.0,0.0
992,0,0.0,0.1481,0.0,0.0
993,0,0.5455,0.3729,0.1429,0.3333
994,0,0.2222,0.4731,0.25,0.2
995,0,0.0,0.0741,0.0,0.0
996,0,0.4,0.2973,0.0,0.0
997,0,0.0,0.2857,0.3333,0.2
998,0,1.0,0.8352,0.6,0.6
999,0,0.0,0.2963,0.3333,0.25
1000,0,0.0,0.2712,0.25,0.1667
1001,0,0.0,0.2778,0.0,0.0
1002,0,0.3636,0.117,0.0,0.0
1003,0,1.0,0.7692,0.6667,0.5
1004,0,0.4444,0.0048,0.0,0.0
1005,0,0.0,0.5941,0.4,0.3333
1006,0,0.0,0.0,0.0,0.0
1007,0,0.0,0.2889,0.3333,0.1429
1008,0,0.0,0.0,0.0,0.0
1009,0,1.0,0.6154,0.375,0.75
1010,0,0.0,0.1404,0.0,0.0
1011,0,0.0,0.3117,0.3333,0.125
1012,0,1.0,0.7556,0.6667,0.5
1013,0,0.2222,0.2319,0.3333,0.125
1014,0,1.0,0.575,0.3333,0.4
1015,0,0.2,0.45,0.3333,0.3333
1016,0,0.2,0.2222,0.0,0.0
1017,0,0.0,0.2474,0.0,0.0
1018,0,0.25,0.2645,0.3333,0.0833
1019,0,0.4444,0.3043,0.0,0.0
1020,0,0.0,0.3043,0.0,0.0
1021,0,1.0,1.0,1.0,1.0
1022,0,0.25,0.4242,0.5,0.2
1023,0,0.0,0.0,0.0,0.0
1024,0,0.2222,0.5,0.5,0.25
1025,0,1.0,1.0,1.0,1.0
1026,0,1.0,1.0,1.0,1.0
1027,0,0.0,0.2195,0.0,0.0
1028,0,0.0,0.2597,0.3333,0.2
1029,0,1.0,1.0,1.0,1.0
1030,0,1.0,1.0,1.0,1.0
1031,0,1.0,1.0,1.0,1.0
1032,0,1.0,1.0,1.0,1.0
1033,0,0.6667,0.2545,0.1429,0.5
1034,0,0.0,0.1538,0.3333,0.1429
1035,0,1.0,0.5333,0.5,0.6667
1036,0,0.3333,0.5935,0.3333,0.3333
1037,0,0.25,0.1176,0.0,0.0
1038,0,0.0,0.4167,0.25,0.25
1039,0,0.2857,0.4038,0.0,0.0
1040,0,0.4,0.2574,0.0,0.0
1041,0,1.0,0.5647,0.3333,0.3333
1042,0,1.0,0.3689,0.5556,0.4545
1043,0,0.1667,0.5818,0.1429,0.1429
1044,0,0.3333,0.2456,0.3333,0.25
1045,0,0.0,0.2857,0.25,0.6667
1046,0,0.1667,0.2353,0.4,0.1818
1047,0,1.0,0.875,1.0,1.0
1048,0,0.1667,0.2927,0.3333,0.1
1049,0,0.1667,0.3478,0.0,0.0
1050,0,1.0,0.88,0.6667,0.6667
1051,0,0.1818,0.3,0.0556,0.1429
1052,0,1.0,0.3908,0.8,0.2353
1053,0,1.0,0.6667,1.0,0.5
1054,0,1.0,0.7826,0.4,0.5
1055,0,0.0,0.1653,0.3333,0.0714
1056,0,0.0,0.7972,0.75,0.9
1057,0,1.0,1.0,1.0,1.0
1058,0,1.0,1.0,1.0,1.0
1059,0,0.0,0.3077,1.0,0.5
1060,0,1.0,1.0,1.0,1.0
1061,0,1.0,0.8591,0.8,0.8
1062,0,1.0,0.8551,0.8571,0.8571
1063,0,0.3636,0.1842,0.0,0.0
1064,0,0.2667,0.2,0.0,0.0
1065,0,0.0,0.3462,0.3333,0.2
1066,0,1.0,0.9333,0.5,0.5
1067,0,0.5333,0.4507,0.3333,0.25
1068,0,1.0,0.9268,1.0,1.0
1069,0,1.0,0.5316,0.6667,0.6667
1070,0,1.0,0.4952,0.75,0.3333
1071,0,1.0,0.75,0.6667,0.8
1072,0,1.0,1.0,1.0,1.0
1073,0,0.0,0.36,0.3333,0.25
1074,0,0.0,0.3256,0.3333,0.25
1075,0,0.0,0.2973,0.1667,0.25
1076,0,0.0,0.0,0.0,0.0
1077,0,1.0,0.72,0.5,0.5
1078,0,0.0,0.3103,0.5,0.25
1079,0,1.0,1.0,1.0,1.0
1080,0,0.2,0.4211,0.0,0.0
1081,0,1.0,1.0,1.0,1.0
1082,0,1.0,0.8675,0.8,0.8
1083,0,1.0,0.5823,1.0,0.4286
1084,0,0.0,0.1505,0.0,0.0
1085,0,0.5,0.2963,0.0,0.0
1086,0,1.0,0.6726,0.8,0.5
1087,0,1.0,0.3204,0.8,0.2667
1088,0,1.0,0.7536,1.0,0.6
1089,0,1.0,0.5902,0.8,0.5714
1090,0,0.3636,0.0322,0.008,0.5
1091,0,0.5,0.32,0.0,0.0
1092,0,1.0,0.9268,1.0,1.0
1093,0,1.0,0.4819,0.4,0.5
1094,0,0.0,0.2414,0.3333,0.1667
1095,0,1.0,0.4898,1.0,0.5
1096,0,1.0,0.4848,1.0,0.5
1097,0,1.0,0.5714,0.3333,0.5
1098,0,1.0,0.7671,0.6667,1.0
1099,0,1.0,0.5926,0.6667,0.5
1100,0,1.0,1.0,1.0,1.0
1101,0,0.0,0.1905,0.0,0.0
1102,0,0.25,0.1818,0.0,0.0
1103,0,0.5,0.7013,0.5,0.75
1104,0,1.0,0.432,0.3333,0.1429
1105,0,1.0,0.3611,1.0,0.4
1106,0,1.0,0.5389,0.5,0.2
1107,0,1.0,1.0,1.0,1.0
1108,0,0.0,0.5625,0.25,0.3333
1109,0,0.0,0.3333,0.125,0.1429
1110,0,0.0,0.2105,0.0,0.0
1111,0,0.0,0.2597,0.3333,0.25
1112,0,0.0,0.0,0.0,0.0
1113,0,0.0,0.0,0.0,0.0
1114,0,0.0,0.2817,0.0,0.0
1115,0,0.25,0.3226,0.0,0.0
1116,0,0.0,0.3409,0.0,0.0
1117,0,0.3333,0.575,0.3333,0.3333
1118,0,0.0,0.2105,0.3333,0.1429
1119,0,0.0,0.45,0.6667,0.25
1120,0,0.0,0.381,0.5,0.2
1121,0,1.0,0.5,0.6667,0.5
1122,0,1.0,0.3288,0.1667,0.5
1123,0,1.0,0.7563,0.8333,0.8333
1124,0,1.0,0.6786,0.8333,0.8333
1125,0,0.3333,0.3467,0.3333,0.2
1126,0,0.0,0.386,0.3333,0.3333
1127,0,0.0,0.0,0.0,0.0
1128,0,0.0,0.381,0.3333,0.25
1129,0,0.1818,0.5714,0.5,0.3333
1130,0,0.5,0.2963,0.0,0.0
1131,0,0.0,0.25,0.3333,0.2
1132,0,1.0,0.7407,0.5,0.6667
1133,0,1.0,0.7619,0.6,0.75
1134,0,1.0,1.0,1.0,1.0
1135,0,1.0,0.4565,0.6667,0.3333
1136,0,0.2,0.3385,0.25,0.0769
1137,0,0.0,0.4194,0.5,0.6667
1138,0,0.1818,0.4412,0.0,0.0
1139,0,0.3333,0.561,0.5,0.2
1140,0,0.0,0.5102,0.2,0.1429
1141,0,1.0,0.8,0.6667,0.6667
1142,0,0.5455,0.3119,0.0,0.0
1143,0,1.0,0.7407,0.8333,0.8333
1144,0,1.0,0.3429,0.1,0.5
1145,0,1.0,0.9153,1.0,0.8
1146,0,0.0,0.125,0.3333,0.1667
1147,0,0.0,0.2258,0.1667,0.125
1148,0,0.0,0.1818,0.0,0.0
1149,0,1.0,0.9367,0.75,0.75
1150,0,0.0,0.1562,0.0,0.0
1151,0,0.0,0.2581,0.0,0.0
1152,0,1.0,0.9244,1.0,0.8333
1153,0,1.0,0.8831,0.6667,0.5
1154,0,1.0,0.8889,0.6667,0.6667
1155,0,0.4444,0.1714,0.0,0.0
1156,0,0.3636,0.5603,0.5714,0.3333
1157,0,1.0,0.5,0.6667,0.4444
1158,0,1.0,0.7416,0.8333,0.7143
1159,0,0.5,0.7027,0.25,0.25
1160,0,0.4615,0.3171,0.3333,0.0769
1161,0,0.0,0.2034,0.3333,0.0833
1162,0,1.0,0.3556,0.5,1.0
1163,0,1.0,0.764,0.8,0.6667
1164,0,0.0,0.2892,0.0,0.0
1165,0,0.0,0.3614,0.1429,0.2
1166,0,0.0,0.173,0.3333,0.0769
1167,0,0.3077,0.2857,0.0,0.0
1168,0,0.0,0.2826,0.3333,0.125
1169,0,0.0,0.3125,0.3333,0.3333
1170,0,1.0,0.8718,0.8,0.8
1171,0,0.4,0.3654,0.0,0.0
1172,0,0.4,0.2381,0.0,0.0
1173,0,0.0,0.2188,0.3333,0.25
1174,0,0.0,0.1,0.0,0.0
1175,0,0.0,0.3048,0.0,0.0
1176,0,0.2857,0.5,0.125,0.3333
1177,0,0.0,0.3492,0.2,0.5
1178,0,0.2222,0.2985,0.0,0.0
1179,0,0.1818,0.3714,0.3333,0.3333
1180,0,0.2857,0.3704,0.0,0.0
1181,0,1.0,1.0,1.0,1.0
1182,0,0.0,0.126,0.3333,0.1
1183,0,0.0,0.1714,0.3333,0.125
1184,0,1.0,1.0,1.0,1.0
1185,0,0.3636,0.28,0.0,0.0
1186,0,0.0,0.0,0.0,0.0
1187,0,0.0,0.0714,0.0,0.0
1188,0,1.0,0.8263,0.8333,0.625
1189,0,1.0,0.6011,0.8,0.3077
1190,0,0.1818,0.3175,0.2,0.125
1191,0,1.0,0.358,0.6667,0.1667
1192,0,1.0,0.6265,0.75,0.6
1193,0,1.0,0.9552,0.6667,0.6667
1194,0,1.0,0.724,0.6,0.5
1195,0,0.4,0.0635,0.0,0.0
1196,0,0.0,0.0,0.0,0.0
1197,0,1.0,1.0,1.0,1.0
1198,0,0.25,0.0968,0.0,0.0
1199,0,0.0,0.1616,0.0,0.0
1200,0,0.25,0.2333,0.0,0.0
1201,0,1.0,1.0,1.0,1.0
1202,0,0.2,0.359,0.0,0.0
1203,0,0.1818,0.2894,0.3333,0.0625
1204,0,1.0,0.8571,0.6667,0.6667
1205,0,0.4444,0.0822,0.0,0.0
1206,0,1.0,0.913,0.6667,0.6667
1207,0,0.4444,0.0952,0.0,0.0
1208,0,0.0,0.0,0.0,0.0
1209,0,1.0,0.7059,0.6667,0.6667
1210,0,1.0,0.3983,0.6,0.2308
1211,0,1.0,0.5055,0.2,0.2
1212,0,0.2857,0.2313,0.3333,0.125
1213,0,0.0,0.5714,0.3333,0.3333
1214,0,0.25,0.2969,0.0,0.0
1215,0,1.0,1.0,1.0,1.0
1216,0,0.1538,0.4516,0.25,0.25
1217,0,1.0,0.3333,1.0,0.2222
1218,0,0.0,0.2745,0.0,0.0
1219,0,1.0,1.0,1.0,1.0
1220,0,0.3333,0.1667,0.0,0.0
1221,0,1.0,0.4658,1.0,0.375
1222,0,1.0,0.439,0.3333,0.25
1223,0,1.0,0.5075,1.0,0.4286
1224,0,0.4,0.3256,0.3333,0.125
1225,0,1.0,0.6387,0.6364,0.5
1226,0,0.25,0.4533,0.5,0.2
1227,0,0.3333,0.2,0.0,0.0
1228,0,0.0,0.0,0.0,0.0
1229,0,1.0,1.0,1.0,1.0
1230,0,0.2222,0.5429,0.25,0.3333
1231,0,0.2857,0.1786,0.0,0.0
1232,0,0.0,0.1667,0.0,0.0
1233,0,0.25,0.0563,0.0,0.0
1234,0,1.0,1.0,1.0,1.0
1235,0,0.0,0.1905,0.0,0.0
1236,0,0.0,0.3294,0.25,0.25
1237,0,1.0,1.0,1.0,1.0
1238,0,0.0,0.4231,0.4,0.6667
1239,0,0.0,0.0265,0.0097,0.25
1240,0,1.0,1.0,1.0,1.0
1241,0,0.2,0.0541,0.0,0.0
1242,0,1.0,0.5055,0.6667,0.3333
1243,0,0.4444,0.2308,0.0,0.0
1244,0,0.0,0.1765,0.0,0.0
1245,0,0.0,0.0842,0.0,0.0
1246,0,0.1818,0.2463,0.0,0.0
1247,0,0.2,0.0449,0.0,0.0
1248,0,0.3333,0.4675,0.6667,0.3333
1249,0,0.0,0.3506,0.25,0.125
1250,0,0.0,0.1224,0.3333,0.0667
1251,0,0.2,0.0556,0.0,0.0
1252,0,0.2222,0.5091,0.2,0.2
1253,0,1.0,1.0,1.0,1.0
1254,0,1.0,1.0,1.0,1.0
1255,0,1.0,0.6944,0.5,0.5
1256,0,1.0,1.0,1.0,1.0
1257,0,1.0,0.6988,0.8,0.5714
1258,0,0.0,0.331,0.1667,0.4
1259,0,0.0,0.375,0.0,0.0
1260,0,0.0,0.2828,0.2,0.2
1261,0,1.0,1.0,1.0,1.0
1262,0,1.0,0.7395,0.6667,0.5714
1263,0,0.0,0.0477,0.3333,0.012
1264,0,0.5,0.093,0.0,0.0
1265,0,0.2857,0.2186,0.6667,0.1176
1266,0,1.0,0.4507,0.3333,0.1667
1267,0,1.0,0.8889,0.8,0.8
1268,0,0.2222,0.2558,0.125,0.1429
1269,0,0.2222,0.2529,0.125,0.1429
1270,0,1.0,0.6957,1.0,0.5714
1271,0,0.2222,0.5205,0.6,0.4286
1272,0,0.0,0.562,0.5,0.3333
1273,0,1.0,0.9362,0.75,0.75
1274,0,1.0,1.0,1.0,1.0
1275,0,1.0,0.72,0.5,0.5
1276,0,0.5455,0.6522,0.6667,0.6667
1277,0,0.0,0.2258,0.0,0.0
1278,0,0.0,0.5657,0.3333,0.2
1279,0,0.2857,0.5294,1.0,0.375
1280,0,0.5,0.6571,0.75,0.5
1281,0,1.0,0.7273,0.5,0.6667
1282,0,0.0,0.2645,0.25,0.0833
1283,0,0.0,0.0,0.0,0.0
1284,0,0.0,0.2466,0.0,0.0
1285,0,1.0,0.6765,0.6667,0.6667
1286,0,0.0,0.2593,0.3333,0.2
1287,0,1.0,0.7257,0.7143,0.4545
1288,0,1.0,0.9153,0.75,0.75
1289,0,1.0,0.8108,0.5,0.5
1290,0,0.2,0.354,0.1667,0.125
1291,0,0.3333,0.3158,0.0,0.0
1292,0,1.0,0.5607,0.25,0.4
1293,0,0.0,0.2466,0.3333,0.2
1294,0,0.5,0.4054,0.0,0.0
1295,0,1.0,0.3182,0.3333,0.1667
1296,0,0.2222,0.4889,0.5,0.1667
1297,0,0.0,0.1702,0.0,0.0
1298,0,0.2,0.3394,0.0,0.0
1299,0,0.0,0.3916,0.0,0.0
1300,0,0.0,0.0,0.0,0.0
1301,0,0.1667,0.1165,0.0,0.0
1302,0,0.0,0.0,0.0,0.0
1303,0,0.0,0.4,0.6667,0.4
1304,0,0.2857,0.3768,0.25,0.1667
1305,0,1.0,1.0,1.0,1.0
1306,0,0.9091,0.5714,0.5,0.6667
1307,0,0.2,0.2581,0.0,0.0
1308,0,0.2857,0.3273,0.6667,0.2857
1309,0,1.0,1.0,1.0,1.0
1310,0,1.0,0.6944,0.6,0.75
1311,0,0.0,0.4324,0.6667,0.2857
1312,0,0.4444,0.0759,0.0,0.0
1313,0,0.0,0.5,0.3333,0.25
1314,0,0.2222,0.1132,0.0,0.0
1315,0,1.0,0.9489,0.8889,0.8889
1316,0,0.3077,0.5455,0.5,0.3333
1317,0,0.0,0.2278,0.0,0.0
1318,0,1.0,1.0,1.0,1.0
1319,0,0.0,0.0,0.0,0.0
1320,0,0.1818,0.5116,0.2857,0.3333
1321,0,0.2857,0.4167,0.3333,0.1667
1322,0,0.1818,0.5849,0.75,0.4286
1323,0,0.2857,0.2653,0.0,0.0
1324,0,1.0,1.0,1.0,1.0
1325,0,0.2857,0.2169,0.0,0.0
1326,0,0.0,0.1758,0.3333,0.1667
1327,0,1.0,0.4974,0.5,0.3636
1328,0,0.2,0.0789,0.0,0.0
1329,0,0.4444,0.375,0.0,0.0
1330,0,0.0,0.0,0.0,0.0
1331,0,1.0,1.0,1.0,1.0
1332,0,1.0,0.8727,1.0,0.8
1333,0,1.0,0.5128,0.3333,0.5
1334,0,0.0,0.5542,0.6667,0.4
1335,0,0.0,0.2727,0.0,0.0
1336,0,1.0,0.3333,0.5,0.4
1337,0,1.0,0.1667,1.0,0.1429
1338,0,0.3636,0.1739,0.0,0.0
1339,0,0.3636,0.1273,0.0,0.0
1340,0,0.0,0.3529,0.1667,0.2
1341,0,1.0,0.9434,1.0,0.8
1342,0,1.0,0.5263,0.5,0.5
1343,0,0.0,0.1667,0.0,0.0
1344,0,1.0,0.3922,0.1667,0.1667
1345,0,1.0,1.0,1.0,1.0
1346,0,1.0,1.0,1.0,1.0
1347,0,0.0,0.25,0.3333,0.1667
1348,0,0.1818,0.7273,0.75,0.6
1349,0,1.0,1.0,1.0,1.0
1350,0,0.4,0.4211,0.3333,0.25
1351,0,0.1818,0.3333,0.2,0.5
1352,0,1.0,0.7273,0.75,0.75
1353,0,0.2857,0.3721,0.3333,0.5
1354,0,0.0,0.3,0.0,0.0
1355,0,1.0,1.0,1.0,1.0
1356,0,0.0,0.0,0.0,0.0
1357,0,0.2222,0.4299,0.6667,0.4
1358,0,0.2222,0.2857,0.25,0.1111
1359,0,1.0,0.4082,1.0,0.6667
1360,0,0.0,0.5556,0.75,0.375
1361,0,1.0,0.1351,1.0,0.1111
1362,0,0.0,0.272,0.0,0.0
1363,0,0.0,0.0,0.0,0.0
1364,0,0.2,0.2051,0.0,0.0
1365,0,0.0,0.2326,0.0,0.0
1366,0,0.0,0.4262,0.6667,0.25
1367,0,0.0,0.2857,0.0,0.0
1368,0,1.0,1.0,1.0,1.0
1369,0,1.0,1.0,1.0,1.0
1370,0,1.0,1.0,1.0,1.0
1371,0,1.0,0.88,0.6667,0.6667
1372,0,0.0,0.0,0.0,0.0
1373,0,0.0,0.0419,0.0,0.0
1374,0,0.0,0.0,0.0,0.0
1375,0,0.25,0.169,0.0,0.0
1376,0,0.0,0.0,0.0,0.0
1377,0,1.0,0.2889,0.5,0.1333
1378,0,0.1818,0.3529,0.0,0.0
1379,0,1.0,1.0,1.0,1.0
1380,0,1.0,1.0,1.0,1.0
1381,0,1.0,0.2889,0.5,0.1333
1382,0,1.0,0.2857,0.5,0.1333
1383,0,1.0,1.0,1.0,1.0
1384,0,1.0,0.3135,0.4,0.1333
1385,0,1.0,0.3135,0.4,0.1333
1386,0,1.0,0.2857,0.5,0.1333
1387,0,1.0,0.6383,0.8,0.6667
1388,0,1.0,1.0,1.0,1.0
1389,0,1.0,0.2747,0.5,0.1333
1390,0,1.0,1.0,1.0,1.0
1391,0,0.0,0.5116,0.5,0.3333
1392,0,0.2,0.446,0.5,0.3
1393,0,0.4444,0.3099,0.0,0.0
1394,0,0.4,0.5714,0.2857,0.4
1395,0,0.0,0.1649,0.3333,0.125
1396,0,0.0,0.2716,0.0,0.0
1397,0,0.3333,0.163,0.0,0.0
1398,0,0.0,0.2947,0.3333,0.2
1399,0,0.0,0.3366,0.2,0.1429
1400,0,0.3333,0.2326,0.3333,0.125
1401,0,0.0,0.1772,0.3333,0.1429
1402,0,0.0,0.2222,0.3333,0.1667
1403,0,0.0,0.2029,0.3333,0.1667
1404,0,0.0,0.1818,0.3333,0.1429
1405,0,1.0,1.0,1.0,1.0
1406,0,1.0,0.6667,0.75,0.75
1407,0,1.0,0.3636,0.2,1.0
1408,0,0.4444,0.0938,0.0,0.0
1409,0,0.2857,0.3704,0.2,0.1429
1410,0,0.0,0.3133,0.3333,0.1429
1411,0,0.2857,0.2174,0.3333,0.1111
1412,0,0.0,0.2857,0.3333,0.1667
1413,0,0.3333,0.6237,0.4,0.3333
1414,0,0.3333,0.6593,0.4,0.3333
1415,0,0.2857,0.2628,0.0,0.0
1416,0,1.0,1.0,1.0,1.0
1417,0,0.0,0.2609,0.0,0.0
1418,0,0.2222,0.1733,0.2,0.0769
1419,0,0.0,0.2857,0.3333,0.125
1420,0,1.0,0.3673,0.3333,0.25
1421,0,1.0,1.0,1.0,1.0
1422,0,0.2857,0.1224,0.0,0.0
1423,0,0.0,0.2353,0.0,0.0
1424,0,0.0,0.0,0.0,0.0
1425,0,0.0,0.0,0.0,0.0
1426,0,0.0,0.303,0.0,0.0
1427,0,0.2857,0.4034,0.8,0.4
1428,0,0.2857,0.4,0.6667,0.3333
1429,0,1.0,0.5405,0.25,0.5
1430,0,0.2857,0.5495,0.8,0.5
1431,0,1.0,0.7857,0.5,0.6667
1432,0,1.0,0.7857,0.5,0.6667
1433,0,0.0,0.0,0.0,0.0
1434,0,0.5,0.4138,0.3333,0.25
1435,0,0.0,0.3299,0.0,0.0
1436,0,1.0,0.7937,0.5,0.5
1437,0,1.0,1.0,1.0,1.0
1438,0,0.0,0.254,0.3333,0.1429
1439,0,0.0,0.0,0.0,0.0
1440,0,0.0,0.2885,0.3333,0.1
1441,0,1.0,0.2378,0.1,0.3333
1442,0,1.0,1.0,1.0,1.0
1443,0,1.0,0.5827,0.4,0.25
1444,0,1.0,0.5652,0.5,0.3333
1445,0,0.0,0.0,0.0,0.0
1446,0,0.0,0.3333,0.3333,0.125
1447,0,0.0,0.2791,0.25,0.1429
1448,0,1.0,0.4928,1.0,0.5
1449,0,0.3077,0.2857,0.0,0.0
1450,0,1.0,1.0,1.0,1.0
1451,0,0.0,0.3556,0.3333,0.2
1452,0,0.4,0.21,0.2857,0.087
1453,0,1.0,0.92,0.6667,0.6667
1454,0,0.2,0.3548,0.1667,0.3333
1455,0,0.0,0.0,0.0,0.0
1456,0,1.0,1.0,1.0,1.0
1457,0,1.0,1.0,1.0,1.0
1458,0,1.0,0.9375,0.8,0.8
1459,0,0.25,0.1875,0.3333,0.1111
1460,0,0.0,0.0361,0.0081,0.6667
1461,0,0.0,0.2712,0.0,0.0
1462,0,1.0,0.3937,0.6667,0.2
1463,0,0.0,0.0,0.0,0.0
1464,0,1.0,0.4375,0.4,0.25
1465,0,0.2222,0.065,0.0,0.0
1466,0,0.0,0.3542,0.2,0.2
1467,0,0.0,0.3133,0.3333,0.1429
1468,0,0.2,0.2917,0.3333,0.1667
1469,0,1.0,1.0,1.0,1.0
1470,0,0.0,0.2667,0.125,0.3333
1471,0,1.0,0.3273,0.4,0.2857
1472,0,1.0,0.9455,0.6667,1.0
1473,0,0.0,0.3492,0.3333,0.25
1474,0,1.0,1.0,1.0,1.0
1475,0,0.2,0.2727,0.0,0.0
1476,0,1.0,1.0,1.0,1.0
1477,0,0.1818,0.3085,0.1667,0.0714
1478,0,0.0,0.5051,0.3333,0.3333
1479,0,0.2857,0.2247,0.3333,0.125
1480,0,1.0,0.3694,0.5,0.2
1481,0,0.0,0.0,0.0,0.0
1482,0,1.0,0.7045,0.4,0.4
1483,0,1.0,0.56,0.4,0.5
1484,0,0.3333,0.6239,0.3333,0.5
1485,0,1.0,1.0,1.0,1.0
1486,0,1.0,1.0,1.0,1.0
1487,0,0.0,0.3896,0.25,0.1
1488,0,0.0,0.2632,0.3333,0.5
1489,0,0.1818,0.5,0.25,0.1667
1490,0,1.0,0.7231,0.8,0.5714
1491,0,1.0,0.6939,0.6,0.75
1492,0,1.0,0.3195,0.6667,0.1818
1493,0,0.0,0.2963,0.0,0.0
1494,0,0.0,0.2366,0.0,0.0
1495,0,0.2857,0.2804,0.3333,0.1111
1496,0,0.2857,0.5306,0.3333,0.3333
1497,0,0.0,0.0952,0.0,0.0
1498,0,0.0,0.0,0.0,0.0
1499,0,0.2857,0.0588,0.0,0.0
1500,0,0.0,0.25,0.0,0.0
1501,0,1.0,0.297,0.25,0.125
1502,0,0.0,0.0,0.0,0.0
1503,0,0.1538,0.3962,0.5,0.125
1504,0,0.0,0.0244,0.0,0.0
1505,0,0.4286,0.1875,0.0,0.0
1506,0,0.0,0.56,0.5,0.5
1507,0,0.0,0.2973,0.0,0.0
1508,0,1.0,0.675,0.5,0.5
1509,0,0.2222,0.5,0.1667,0.2
1510,0,0.0,0.2222,0.0,0.0
1511,0,0.0,0.2759,0.0,0.0
1512,0,0.25,0.3951,0.1667,0.3333
1513,0,1.0,0.9318,0.8571,1.0
1514,0,1.0,1.0,1.0,1.0
1515,0,0.1667,0.1818,0.0,0.0
1516,0,0.25,0.76,0.5,0.4286
1517,0,0.0,0.4167,0.3333,0.25
1518,0,1.0,1.0,1.0,1.0
1519,0,1.0,0.5434,0.8333,0.5
1520,0,1.0,0.913,1.0,1.0
1521,0,0.2,0.4762,0.5,0.3333
1522,0,1.0,0.5263,0.6667,0.5
1523,0,0.0,0.1639,0.3333,0.1429
1524,0,0.1818,0.3521,0.2,0.2222
1525,0,0.0,0.275,0.0,0.0
1526,0,1.0,1.0,1.0,1.0
1527,0,0.0,0.3741,0.1111,0.25
1528,0,1.0,0.6122,0.5,0.6667
1529,0,1.0,0.4533,0.6,0.4286
1530,0,0.0,0.0,0.0,0.0
1531,0,1.0,0.9565,1.0,0.8571
1532,0,1.0,0.8974,0.75,0.75
1533,0,1.0,1.0,1.0,1.0
1534,0,0.1667,0.6531,0.0,0.0
1535,0,0.3077,0.2581,0.1667,0.5
1536,0,0.2,0.3881,0.25,0.25
1537,0,0.0,0.4051,0.2,0.3333
1538,0,0.0,0.3956,0.2,0.25
1539,0,0.0,0.1569,0.0,0.0
1540,0,1.0,0.7843,0.6667,0.6667
1541,0,1.0,0.3111,0.6667,0.2857
1542,0,0.0,0.5495,0.2,0.4
1543,0,0.0,0.0,0.0,0.0
1544,0,1.0,0.5102,0.25,0.1667
1545,0,0.0,0.4615,0.3333,0.3333
1546,0,0.3636,0.3284,0.0,0.0
1547,0,1.0,1.0,1.0,1.0
1548,0,0.0,0.2828,0.25,0.2
1549,0,1.0,1.0,1.0,1.0
1550,0,0.0,0.0,0.0,0.0
1551,0,0.1818,0.3711,0.25,0.1667
1552,0,0.2857,0.1333,0.0,0.0
1553,0,1.0,0.6726,0.4286,0.6
1554,0,1.0,0.6471,0.3333,1.0
1555,0,1.0,0.4167,0.5,0.25
1556,0,1.0,0.8831,0.75,0.75
1557,0,0.0,0.0,0.0,0.0
1558,0,0.0,0.2857,0.0,0.0
1559,0,0.0,0.2727,0.0,0.0
1560,0,0.0,0.4396,0.0,0.0
1561,0,0.2857,0.129,0.0,0.0
1562,0,0.0,0.0,0.0,0.0
1563,0,0.25,0.3077,0.0,0.0
1564,0,1.0,0.6914,0.6,0.6
1565,0,0.0,0.3038,0.2,0.3333
1566,0,0.2222,0.28,0.25,0.0769
1567,0,0.0,0.3667,0.3333,0.25
1568,0,1.0,1.0,1.0,1.0
1569,0,0.0,0.0,0.0,0.0
1570,0,1.0,0.6122,1.0,0.6667
1571,0,0.0,0.3158,0.3333,0.2
1572,0,0.0,0.2143,0.0,0.0
1573,0,1.0,0.9583,1.0,1.0
1574,0,0.0,0.15,0.0,0.0
1575,0,0.0,0.25,0.3333,0.1667
1576,0,0.0,0.4615,0.2,0.3333
1577,0,0.0,0.1935,0.0,0.0
1578,0,0.2857,0.3373,0.3333,0.2
1579,0,0.2353,0.6667,0.5,0.5
1580,0,1.0,1.0,1.0,1.0
1581,0,0.25,0.3784,0.3333,0.125
1582,0,0.0,0.2414,0.25,0.25
1583,0,0.0,0.2963,0.0,0.0
1584,0,0.4444,0.1,0.0,0.0
1585,0,1.0,0.7143,0.6667,1.0
1586,0,1.0,0.4898,1.0,0.375
1587,0,1.0,1.0,1.0,1.0
1588,0,1.0,0.9302,1.0,1.0
1589,0,1.0,0.8706,0.75,0.75
1590,0,1.0,1.0,1.0,1.0
1591,0,0.0,0.6562,0.8571,0.5455
1592,0,1.0,1.0,1.0,1.0
1593,0,1.0,0.4468,1.0,0.4286
1594,0,0.2857,0.1765,0.0,0.0
1595,0,1.0,0.2178,0.5,0.0909
1596,0,1.0,0.339,0.25,0.5
1597,0,1.0,0.65,0.5,0.6667
1598,0,1.0,0.8049,1.0,0.6667
1599,0,1.0,0.7733,0.6667,0.5
1600,0,0.0,0.5532,0.4,0.5
1601,0,0.25,0.3607,0.0,0.0
1602,0,0.2,0.3107,0.5,0.0769
1603,0,0.0,0.0,0.0,0.0
1604,0,1.0,1.0,1.0,1.0
1605,0,0.0,0.2821,0.3333,0.1667
1606,0,0.0,0.5773,0.75,0.5
1607,0,0.4,0.5306,0.4,0.3333
1608,0,0.0,0.3478,0.3333,0.2
1609,0,0.2222,0.2195,0.0,0.0
1610,0,0.6667,0.5122,0.6667,0.2857
1611,0,0.1818,0.2979,0.3333,0.1111
1612,0,1.0,0.5806,0.5,0.5
1613,0,0.0,0.3607,0.3333,0.2
1614,0,0.1429,0.4356,0.25,0.1667
1615,0,0.25,0.1099,0.0,0.0
1616,0,1.0,1.0,1.0,1.0
1617,0,1.0,1.0,1.0,1.0
1618,0,0.0,0.359,0.6667,0.2857
1619,0,1.0,0.5714,0.3333,0.3333
1620,0,0.3333,0.5926,0.6,0.4286
1621,0,0.0,0.5714,0.5,0.4286
1622,0,0.2222,0.3019,0.0,0.0
1623,0,0.0,0.0383,0.0041,0.3333
1624,0,0.0,0.4138,0.3333,0.2
1625,0,0.0,0.3556,0.2,0.1667
1626,0,0.2,0.4113,0.2,0.5
1627,0,0.0,0.2718,0.3333,0.125
1628,0,0.6667,0.2609,0.5,0.2
1629,0,1.0,1.0,1.0,1.0
1630,0,0.3636,0.069,0.0,0.0
1631,0,0.1667,0.4045,0.0,0.0
1632,0,0.0,0.2791,0.0,0.0
1633,0,1.0,1.0,1.0,1.0
1634,0,0.0,0.3158,0.0,0.0
1635,0,0.8333,0.3415,0.0,0.0
1636,0,1.0,0.375,0.5,0.1667
1637,0,0.2,0.1818,0.3333,0.125
1638,0,0.0,0.0,0.0,0.0
1639,0,1.0,0.9333,0.875,0.875
1640,0,0.0,0.3889,0.6667,0.3333
1641,0,0.4444,0.365,0.0,0.0
1642,0,1.0,0.3308,0.1111,0.25
1643,0,1.0,0.4848,0.3333,0.5
1644,0,1.0,0.3614,0.6667,0.4
1645,0,1.0,0.5432,0.5,0.6667
1646,0,1.0,0.9231,1.0,1.0
1647,0,0.2857,0.2642,0.0,0.0
1648,0,0.3333,0.2727,0.3333,0.125
1649,0,0.2857,0.7023,0.8,0.5714
1650,0,0.0,0.2985,0.3333,0.2
1651,0,0.0,0.1573,0.0,0.0
1652,0,1.0,0.6496,0.5,0.4286
1653,0,0.3333,0.5172,0.25,0.3333
1654,0,0.4,0.4762,0.25,0.3333
1655,0,0.0,0.3889,0.5,0.3333
1656,0,1.0,0.5357,0.6667,0.6667
1657,0,0.0,0.2947,0.0,0.0
1658,0,0.0,0.0,0.0,0.0
1659,0,1.0,0.7907,0.6667,0.6667
1660,0,1.0,0.6667,0.6667,0.4444
1661,0,1.0,0.5952,0.75,0.4286
1662,0,0.5,0.459,0.6667,0.4
1663,0,0.0,0.0,0.0,0.0
1664,0,0.0,0.1972,0.3333,0.1667
1665,0,0.2,0.0508,0.0,0.0
1666,0,0.0,0.0755,0.0,0.0
1667,0,0.2,0.2222,0.0,0.0
1668,0,0.0,0.4789,0.25,0.2
1669,0,1.0,0.6786,1.0,0.4
1670,0,1.0,0.6809,1.0,0.4
1671,0,1.0,0.597,0.6667,0.4
1672,0,0.0,0.2018,0.3333,0.0833
1673,0,0.0,0.2764,0.0,0.0
1674,0,0.0,0.3421,0.125,0.5
1675,0,0.3077,0.3944,0.0,0.0
1676,0,0.2,0.2365,0.0,0.0
1677,0,0.0,0.3043,0.3333,0.3333
1678,0,0.1818,0.3243,0.0,0.0
1679,0,0.0,0.2532,0.3333,0.1429
1680,0,0.0,0.3158,0.3333,0.25
1681,0,1.0,0.8842,0.8,0.8
1682,0,1.0,0.437,0.4,0.1818
1683,0,1.0,0.7273,0.6667,0.5714
1684,0,0.0,0.2759,0.3333,0.25
1685,0,0.4,0.2188,0.0,0.0
1686,0,1.0,1.0,1.0,1.0
1687,0,0.4444,0.3558,0.2,0.0714
1688,0,1.0,0.9172,0.875,0.7
1689,0,0.4444,0.3509,0.0,0.0
1690,0,0.4,0.5143,0.25,0.3333
1691,0,1.0,0.2609,1.0,0.2
1692,0,1.0,0.2449,1.0,0.2
1693,0,1.0,1.0,1.0,1.0
1694,0,1.0,0.9772,1.0,0.9
1695,0,1.0,0.7273,0.7143,0.5
1696,0,1.0,0.8154,0.875,0.7
1697,0,1.0,0.8507,1.0,0.7
1698,0,1.0,0.8504,0.875,0.7
1699,0,1.0,0.7545,0.7143,0.5
1700,0,0.0,0.3958,0.1667,0.2
1701,0,0.25,0.2535,0.0,0.0
1702,0,1.0,0.8527,0.875,0.7
1703,0,1.0,0.8477,0.875,0.7
1704,0,1.0,0.7111,1.0,0.5
1705,0,1.0,0.8212,0.875,0.7
1706,0,1.0,0.5385,1.0,0.3636
1707,0,0.25,0.2237,0.0,0.0
1708,0,1.0,0.8824,0.8571,0.75
1709,0,0.2857,0.4,0.3333,0.2
1710,0,0.0,0.3529,0.0,0.0
1711,0,0.0,0.2381,0.0,0.0
1712,0,1.0,0.9677,1.0,1.0
1713,0,0.0,0.2143,0.0,0.0
1714,0,0.0,0.375,0.3333,0.25
1715,0,1.0,0.5833,1.0,0.5
1716,0,1.0,0.9315,0.6667,0.6667
1717,0,0.4444,0.3571,0.5,0.25
1718,0,0.2,0.3736,0.0,0.0
1719,0,0.0,0.25,0.0,0.0
1720,0,0.0,0.0,0.0,0.0
1721,0,0.4,0.2995,0.5,0.1333
1722,0,1.0,1.0,1.0,1.0
1723,0,1.0,0.6452,0.6,0.6
1724,0,0.0,0.3182,0.3333,0.25
1725,0,0.0,0.25,0.3333,0.2
1726,0,0.0,0.1667,0.3333,0.125
1727,0,0.0,0.2526,0.3333,0.125
1728,0,0.1818,0.3448,0.0,0.0
1729,0,1.0,0.7273,0.6667,0.6667
1730,0,0.2,0.4762,0.5,0.3333
1731,0,0.0,0.0,0.0,0.0
1732,0,1.0,0.971,0.75,0.75
1733,0,1.0,1.0,1.0,1.0
1734,0,1.0,0.449,1.0,0.5
1735,0,1.0,0.6154,0.3333,0.5
1736,0,1.0,0.9067,0.8,0.8
1737,0,1.0,0.3689,0.6667,0.25
1738,0,1.0,0.6593,0.6,0.4286
1739,0,0.3333,0.463,0.6,0.4286
1740,0,1.0,0.4364,0.6667,0.3636
1741,0,1.0,0.3333,0.5,0.2857
1742,0,1.0,1.0,1.0,1.0
1743,0,0.2,0.2903,0.0,0.0
1744,0,0.2,0.2222,0.0,0.0
1745,0,0.0,0.4,0.0,0.0
1746,0,1.0,0.5862,0.6667,0.6667
1747,0,1.0,0.9508,1.0,1.0
1748,0,0.0,0.2564,0.0,0.0
1749,0,0.0,0.3043,0.0,0.0
1750,0,1.0,0.4222,0.6667,0.2857
1751,0,1.0,0.9041,1.0,0.8
1752,0,1.0,1.0,1.0,1.0
1753,0,0.3333,0.4444,0.3333,0.5
1754,0,0.3333,0.6087,0.3333,0.5
1755,0,0.3333,0.4138,0.3333,0.3333
1756,0,0.25,0.1818,0.0,0.0
1757,0,1.0,0.5455,0.6667,0.5
1758,0,0.0,0.5179,0.3333,0.3333
1759,0,0.0,0.3158,0.3333,0.5
1760,0,0.0,0.275,0.1,0.3333
1761,0,1.0,1.0,1.0,1.0
1762,0,0.2,0.5938,0.1667,0.1429
1763,0,1.0,0.9412,1.0,1.0
1764,0,0.2222,0.4156,0.25,0.1667
1765,0,0.5,0.3333,0.0,0.0
1766,0,0.5,0.3051,0.5,0.2
1767,0,0.0,0.5484,0.4,0.4
1768,0,1.0,1.0,1.0,1.0
1769,0,1.0,0.5714,0.375,0.6
1770,0,1.0,0.6173,0.6667,0.8
1771,0,1.0,0.775,0.5,0.5
1772,0,0.0,0.0,0.0,0.0
1773,0,1.0,0.4865,0.4,0.6667
1774,0,0.0,0.3221,0.0,0.0
1775,0,0.2,0.2222,0.0,0.0
1776,0,1.0,1.0,1.0,1.0
1777,0,0.0,0.3182,0.0,0.0
1778,0,0.5,0.4615,0.0,0.0
1779,0,1.0,1.0,1.0,1.0
1780,0,1.0,1.0,1.0,1.0
1781,0,0.2857,0.2182,0.0,0.0
1782,0,0.0,0.25,0.3333,0.1667
1783,0,0.0,0.2821,0.3333,0.1429
1784,0,1.0,0.5895,0.6,0.5
1785,0,0.1818,0.4426,0.5,0.3333
1786,0,1.0,0.5618,0.75,0.4286
1787,0,0.1818,0.3107,0.2,0.1429
1788,0,1.0,0.5,0.5,0.4
1789,0,0.0,0.2222,0.3333,0.0909
1790,0,0.0,0.1802,0.3333,0.0909
1791,0,0.2222,0.254,0.3333,0.0909
1792,0,0.3077,0.3333,0.3333,0.0909
1793,0,1.0,0.5781,0.75,0.2727
1794,0,0.0,0.2375,0.3333,0.0769
1795,0,0.0,0.4414,0.5,0.1818
1796,0,0.0,0.3944,0.25,0.2727
1797,0,0.0,0.2951,0.3333,0.0909
1798,0,0.0,0.2787,0.3333,0.0909
1799,0,0.125,0.4638,0.5,0.1818
1800,0,1.0,0.5143,0.6,0.2727
1801,0,0.0,0.2013,0.25,0.0769
1802,0,0.0,0.3148,0.3333,0.0909
1803,0,0.2857,0.4516,0.0,0.0
1804,0,0.5,0.4545,0.6667,0.2857
1805,0,0.5,0.4615,0.6667,0.2857
1806,0,0.3077,0.325,0.0,0.0
1807,0,0.2,0.25,0.0,0.0
1808,0,0.0,0.4231,0.6667,0.4
1809,0,0.4,0.3889,0.125,0.3333
1810,0,1.0,0.381,0.6667,0.5
1811,0,0.2857,0.4127,0.25,0.25
1812,0,1.0,1.0,1.0,1.0
1813,0,1.0,0.6897,0.5714,1.0
1814,0,0.3333,0.1356,0.0,0.0
1815,0,1.0,0.3765,0.6667,0.2857
1816,0,0.0,0.386,0.25,0.5
1817,0,1.0,1.0,1.0,1.0
1818,0,0.2222,0.2951,0.0,0.0
1819,0,0.4444,0.1364,0.0,0.0
1820,0,0.1818,0.2857,0.0,0.0
1821,0,1.0,0.536,1.0,0.375
1822,0,1.0,0.6792,1.0,0.75
1823,0,0.0,0.0645,0.0,0.0
1824,0,1.0,0.7887,0.6,0.75
1825,0,0.1818,0.5361,0.2,0.3333
1826,0,0.3636,0.3,0.0,0.0
1827,0,1.0,1.0,1.0,1.0
1828,0,0.0,0.2121,0.0,0.0
1829,0,0.1818,0.7391,0.6667,0.6667
1830,0,1.0,1.0,1.0,1.0
1831,0,1.0,1.0,1.0,1.0
1832,0,0.2857,0.2979,0.0,0.0
1833,0,0.2,0.3733,0.0,0.0
1834,0,0.1667,0.25,0.0,0.0
1835,0,0.0,0.2222,0.3333,0.25
1836,0,0.0,0.2264,0.3333,0.25
1837,0,1.0,1.0,1.0,1.0
1838,0,0.3077,0.3864,0.0,0.0
1839,0,1.0,0.5333,0.6667,0.3333
1840,0,0.0,0.0388,0.0,0.0
1841,0,0.0,0.3604,0.25,0.25
1842,0,0.0,0.0,0.0,0.0
1843,0,1.0,0.8421,0.75,0.75
1844,0,1.0,0.3407,0.1111,0.3333
1845,0,0.25,0.2989,0.3333,0.1667
1846,0,0.0,0.303,0.0,0.0
1847,0,0.0,0.443,0.2,0.0909
1848,0,0.0,0.3457,0.25,0.25
1849,0,0.2857,0.4643,0.5,0.25
1850,0,0.0,0.3129,0.0,0.0
1851,0,0.0,0.2388,0.0,0.0
1852,0,0.5,0.3265,0.0,0.0
1853,0,1.0,0.8462,0.75,0.75
1854,0,0.4,0.3288,0.0,0.0
1855,0,0.3636,0.2286,0.0,0.0
1856,0,0.25,0.3529,0.0,0.0
1857,0,0.0,0.25,0.5,0.2
1858,0,0.2857,0.6796,0.5,0.5
1859,0,1.0,0.6,0.6667,0.5
1860,0,0.0,0.3684,0.3333,0.25
1861,0,0.0,0.3636,0.3333,0.1667
1862,0,0.0,0.2667,0.3333,0.1667
1863,0,1.0,0.497,0.5,0.4444
1864,0,1.0,0.5461,0.4545,0.4167
1865,0,0.25,0.5195,0.25,0.25
1866,0,0.0,0.3509,0.0,0.0
1867,0,0.3077,0.5542,0.3333,0.2
1868,0,1.0,1.0,1.0,1.0
1869,0,0.0,0.4444,0.3333,0.3333
1870,0,1.0,1.0,1.0,1.0
1871,0,1.0,1.0,1.0,1.0
1872,0,0.3333,0.2609,0.3333,0.1429
1873,0,0.0,0.28,0.3333,0.3333
1874,0,1.0,0.8358,0.8,0.8
1875,0,0.3333,0.6538,0.3333,0.3333
1876,0,0.3333,0.4878,0.5,0.3333
1877,0,0.4444,0.0723,0.0,0.0
1878,0,1.0,1.0,1.0,1.0
1879,0,0.1818,0.4634,0.3333,0.2
1880,0,0.4,0.3689,0.5,0.25
1881,0,0.3333,0.3188,0.0,0.0
1882,0,0.0,0.6383,0.25,0.2
1883,0,1.0,0.5161,0.6667,0.6667
1884,0,0.0,0.2667,0.25,0.0909
1885,0,0.1818,0.5435,0.2,0.3333
1886,0,1.0,0.3256,0.3333,0.25
1887,0,0.2857,0.5854,0.3333,0.5
1888,0,1.0,0.875,0.8,0.6667
1889,0,1.0,0.7586,0.6667,0.6667
1890,0,0.4444,0.1,0.0,0.0
1891,0,1.0,1.0,1.0,1.0
1892,0,1.0,0.7692,0.6,0.6
1893,0,0.5,0.1739,0.0,0.0
1894,0,0.0,0.2933,0.3333,0.1667
1895,0,0.0,0.3469,0.1667,0.25
1896,0,0.0,0.3191,0.1667,0.2
1897,0,1.0,1.0,1.0,1.0
1898,0,1.0,1.0,1.0,1.0
1899,0,0.4444,0.2632,0.0,0.0
1900,0,0.2857,0.3061,0.0,0.0
1901,0,1.0,1.0,1.0,1.0
1902,0,0.0,0.3364,0.125,0.1667
1903,0,1.0,0.6538,1.0,0.6
1904,0,1.0,0.6167,0.5,0.4286
1905,0,1.0,0.8,0.8333,0.7143
1906,0,0.0,0.32,0.25,0.5
1907,0,0.3158,0.3446,0.25,0.0556
1908,0,1.0,0.7742,0.75,0.75
1909,0,1.0,0.5333,0.4,0.3333
1910,0,0.0,0.2353,0.1429,0.25
1911,0,1.0,0.9643,1.0,1.0
1912,0,0.3077,0.1571,0.0,0.0
1913,0,1.0,0.7204,0.8,0.5
1914,0,0.25,0.2737,0.3333,0.1667
1915,0,0.2222,0.2258,0.0,0.0
1916,0,0.0,0.3143,0.0,0.0
1917,0,0.0,0.259,0.3333,0.1111
1918,0,1.0,0.988,1.0,1.0
1919,0,0.0,0.2909,0.1429,0.1
1920,0,0.2857,0.3396,0.0,0.0
1921,0,0.0,0.1108,0.5,0.0175
1922,0,1.0,0.7423,0.5,0.4
1923,0,1.0,0.9398,1.0,0.8333
1924,0,0.3077,0.5161,0.3333,0.25
1925,0,0.0,0.0,0.0,0.0
1926,0,1.0,0.6744,0.5,0.4
1927,0,1.0,0.449,0.0,0.0
1928,0,0.0,0.0,0.0,0.0
1929,0,0.2222,0.0851,0.0,0.0
1930,0,0.0,0.4286,0.4,0.4
1931,0,1.0,0.7901,0.7647,0.5652
1932,0,0.3333,0.2,1.0,0.3333
1933,0,0.0,0.1772,0.0,0.0
1934,0,0.2222,0.8101,0.3333,0.3333
1935,0,0.1429,0.7333,0.5,0.4
1936,0,0.0,0.3611,0.5,0.1667
1937,0,0.1429,0.6829,0.6667,0.3333
1938,0,0.25,0.3308,0.0909,0.2
1939,0,0.0,0.9,0.8,1.0
1940,0,0.25,0.3299,0.0,0.0
1941,0,1.0,0.4286,0.3333,0.5
1942,0,0.0,0.0,0.0,0.0
1943,0,0.0,0.3137,0.75,0.5
1944,0,0.0,0.0896,0.0,0.0
1945,0,1.0,0.9375,1.0,1.0
1946,0,0.5,0.1286,0.0,0.0
1947,0,0.5263,0.3636,0.0,0.0
1948,0,0.0,0.5128,0.6667,0.3333
1949,0,1.0,0.5333,0.5,0.5
1950,0,1.0,0.3396,0.6667,0.4
1951,0,1.0,0.75,0.6667,0.6667
1952,0,1.0,0.42,1.0,0.3333
1953,0,0.0,0.2712,0.6667,0.2
1954,0,0.25,0.1947,0.0,0.0
1955,0,0.0,0.1835,0.3333,0.0833
1956,0,1.0,0.4387,0.6,0.2143
1957,0,0.0,0.7049,0.3333,0.3333
1958,0,1.0,0.6588,0.6,1.0
1959,0,0.3077,0.2857,0.0,0.0
1960,0,0.0,0.4176,0.3333,0.2
1961,0,1.0,0.7059,0.8333,0.7143
1962,0,0.0,0.3636,0.3333,0.5
1963,0,0.0,0.24,0.25,0.1
1964,0,1.0,0.5797,0.25,0.5
1965,0,1.0,0.537,0.5,0.4286
